"","District","Subcounty","ChildrenWindstorm","Children Windstorm Score"
"444","WAKISO","KYENGERA TOWN COUNCIL",56812,50
"435","HOIMA","KYANGWALI",33526,49
"52","BUYENDE","BUGAYA",30891,48
"260","BUYENDE","KAGULU",28765,47
"337","WAKISO","KATABI TOWN COUNCIL",28002,46
"264","WAKISO","KAJJANSI TOWN COUNCIL",25337,45
"373","HOIMA","KIGOROBYA",22589,44
"247","HOIMA","KABWOYA",22518,43
"467","SSEMBABULE","LWEBITAKULI",20449,42
"396","KAKUMIRO","KISIITA",20282,41
"405","MUBENDE","KITENGA",19802,40
"343","SERERE","KATETA",18401,39
"251","BUKEDEA","KACHUMBALA",18003,38
"478","NAMUTUMBA","MAGADA",17051,37
"410","MUBENDE","KITUMBI",16799,36
"469","LWENGO","LWENGO",16723,35
"378","ISINGIRO","KIKAGATE",16708,34
"39","MASINDI","BUDONGO",16391,33
"99","NAMUTUMBA","BULANGE",16169,32
"624","KASESE","NYAMWAMBA DIVISION",16145,31
"446","SERERE","KYERE",15985,30
"485","BUKEDEA","MALERA",15880,29
"178","MASINDI","BWIJANGA",15829,28
"486","KASESE","MALIBA",15755,27
"526","KUMI","MUKONGORO",15699,26
"166","MPIGI","BUWAMA",15480,25
"212","KYEGEGWA","HAPUUYO",15476,24
"160","MUBENDE","BUTOLOOGO",15234,23
"562","IGANGA","NAMBALE",15197,22
"395","LWENGO","KISEKKA",14995,21
"8","AMURU","AMURU",14876,20
"224","NAPAK","IRIIRI",14836,19
"464","RAKAI","LWAMAGGWA",14689,18
"437","KASESE","KYARUMBA",14643,17
"512","KASESE","MPONDWE-LHUBIRIHA",14636,16
"179","KAGADI","BWIKARA",14416,15
"3","NWOYA","ALERO",14212,14
"672","NTUNGAMO","RUHAAMA",14199,13
"616","ISINGIRO","NYAKITUNDA",13996,12
"301","KUMI","KANYUM",13765,11
"510","KAGADI","MPEEFU",13714,10
"639","TORORO","OSUKURU",13497,9
"636","KUMI","ONGINO",13390,8
"137","HOIMA","BUSERUKA",13222,7
"371","MUBENDE","KIGANDO",13197,6
"547","MOROTO","NADUNGET",13115,5
"577","LWENGO","NDAGWE",13007,4
"90","LUUKA","BUKOOMA",12916,3
"566","NAMUTUMBA","NAMUTUMBA",12906,2
"487","LWENGO","MALONGO",12748,1
