"","District","Subcounty","Children with DisabilitiesHailstorms","Children with Disabilities Hailstorms Score"
"404","NAMISINDWA","MAGALE",2458.5,16.5
"187","BUTALEJA","HIMUTU",1712.5,16.17
"64","SIRONKO","BUKHULO",1334.5,15.84
"591","NAMISINDWA","TSEKULULU",1308,15.51
"452","TORORO","MULANDA",1046,15.18
"391","SSEMBABULE","LWEBITAKULI",1021.5,14.85
"403","NAMUTUMBA","MAGADA",939.5,14.52
"371","KYENJOJO","KYARUSOZI",925.5,14.19
"346","MUBENDE","KITENGA",896.5,13.86
"152","JINJA","BUWENGE",888.5,13.53
"482","NAMISINDWA","NAMBOKO",877.5,13.2
"410","MAYUGE","MALONGO",861.5,12.87
"264","BUGIRI","KAPYANGA",856.5,12.54
"83","BUGIRI","BULESA",756,12.21
"402","JINJA","MAFUBIRA",748.5,11.88
"537","TORORO","OSUKURU",731,11.55
"106","BUTALEJA","BUSABA",727.5,11.22
"130","BUTALEJA","BUTALEJA",725.5,10.89
"545","PALLISA","PUTI-PUTI",721,10.56
"590","KIBUKU","TIRINYI",697,10.23
"92","BUDUDA","BUMAYOKA",691.5,9.9
"256","KAYUNGA","KANGULUMIRA",678.5,9.57
"605","MANAFWA","WESWA",674,9.24
"449","TORORO","MUKUJU",664,8.91
"488","BUTALEJA","NAWANJOFU",662.5,8.58
"31","JINJA","BUDONDO",655,8.25
"393","LWENGO","LWENGO",652.5,7.92
"500","BUIKWE","NJERU DIVISION",649.5,7.59
"533","ARUA","OKOLLO",644.5,7.26
"291","KAYUNGA","KAYONZA",634.5,6.93
"338","KAKUMIRO","KISIITA",634.5,6.93
"554","TORORO","RUBONGI",628,6.27
"332","TORORO","KIREWA",623.5,5.94
"378","ARUA","LOGIRI",622.5,5.61
"105","KAYUNGA","BUSAANA",621.5,5.28
"140","MANAFWA","BUTIRU",604.5,4.95
"58","BUDUDA","BUKALASI",602,4.62
"341","KAMULI","KISOZI",601.5,4.29
"538","ARUA","PAJULU",595,3.96
"458","BUGIRI","NABUKALU",592.5,3.63
"75","KALUNGU","BUKULULA",590,3.3
"436","TORORO","MOLO",585,2.97
"460","TORORO","NABUYOGA",578,2.64
"530","BUIKWE","NYENGA DIVISION",577.5,2.31
"560","NTUNGAMO","RUHAAMA",572,1.98
"471","IGANGA","NAKIGO",567,1.65
"5","PALLISA","APOPONG",564,1.32
"316","MUBENDE","KIGANDA",555.5,0.99
"521","NTUNGAMO","NYAKYERA",555.5,0.99
"80","NAMUTUMBA","BULANGE",551.5,0.33
