"","District","Subcounty","Elderly with DisabilitiesFlood","Elderly with Disabilities Flood Score"
"81","KALUNGU","BUKULULA",2784,16.5
"36","APAC","APAC",2779.5,16.17
"296","LWENGO","KKINGO",2524.5,15.84
"237","KATAKWI","KATAKWI",2475,15.51
"178","GOMBA","KABULASOKE",2473.5,15.18
"243","KAYUNGA","KAYONZA",2379,14.85
"52","BUKOMANSIMBI","BIGASA",2320.5,14.52
"153","SOROTI","GWERI",2275.5,14.19
"278","LWENGO","KISEKKA",2221.5,13.86
"159","APAC","IBUJE",2145,13.53
"49","KAMULI","BALAWOLI",2136,13.2
"244","KAYUNGA","KAYUNGA",2112,12.87
"185","BUYENDE","KAGULU",2045,12.54
"276","KIRYANDONGO","KIRYANDONGO",2016,12.21
"229","MUKONO","KASAWO",1831.5,11.88
"5","KOLE","ABOKE",1817,11.55
"177","MASAKA","KABONERA",1813.5,11.22
"538","KATAKWI","USUK",1768.5,10.89
"526","MUKONO","SEETA NAMUGANGA",1744.5,10.56
"26","NWOYA","ALERO",1735.5,10.23
"452","RUKUNGIRI","NYARUSHANJE",1684,9.9
"363","BUKEDEA","MALERA",1682,9.57
"308","HOIMA","KYANGWALI",1679,9.24
"28","KOLE","ALITO",1674,8.91
"385","TORORO","MULANDA",1649,8.58
"238","SERERE","KATETA",1630,8.25
"180","HOIMA","KABWOYA",1627.5,7.92
"481","AMURU","PABO",1624.5,7.59
"437","MPIGI","NKOZI",1621.5,7.26
"312","SERERE","KYERE",1559,6.93
"240","SOROTI","KATINE",1525.5,6.6
"124","IGANGA","BUYANGA",1521,6.27
"545","LUWERO","ZIROBWE",1506,5.94
"285","BUKOMANSIMBI","KITANDA",1491,5.61
"220","BUGIRI","KAPYANGA",1488,5.28
"120","MPIGI","BUWAMA",1484,4.95
"358","NAMUTUMBA","MAGADA",1474,4.62
"322","AMURU","LAMOGI",1455,4.29
"288","KAYUNGA","KITIMBWA",1443,3.96
"341","OYAM","LORO",1441,3.63
"139","APAC","CHEGERE",1436,3.3
"68","KYENJOJO","BUGAAKI",1413,2.97
"283","KAMULI","KISOZI",1402,2.64
"125","RUKUNGIRI","BUYANJA",1385,2.31
"383","KUMI","MUKONGORO",1375,1.98
"11","APAC","ADUKU",1371,1.65
"286","KAMULI","KITAYUNJWA",1366,1.32
"6","APAC","ABONGOMOLA",1359,0.99
"472","KUMI","ONGINO",1352,0.66
"44","AMURU","ATTIAK",1341,0.33
