"","District","Subcounty","Elderly with DisabilitiesLightning","Elderly with Disabilities Lightning Score"
"207","TORORO","MULANDA",2473.5,16.5
"239","RUKUNGIRI","NYAKAGYEME",1959,16.17
"250","TORORO","OSUKURU",1770,15.84
"275","RUKUNGIRI","RUHINDA",1702.5,15.51
"274","TORORO","RUBONGI",1647,15.18
"44","RUKUNGIRI","BUGANGARI",1446,14.85
"34","MITOOMA","BITEREKO",1410,14.52
"238","BUSHENYI","NYABUBARE",1342.5,14.19
"120","KANUNGU","KAMBUGA",1333.5,13.86
"202","MITOOMA","MITOOMA",1329,13.53
"195","BUSIA","MASABA",1191,13.2
"140","KANUNGU","KAYONZA",1152,12.87
"58","BUGIRI","BULUGUYI",1089,12.54
"126","KANUNGU","KANYANTOROGO",1056,12.21
"192","TORORO","MAGOLA",1051.5,11.88
"200","TORORO","MELLA",1009.5,11.55
"48","BUSIA","BUHEHE",957,11.22
"86","RUKUNGIRI","BWAMBARA",916.5,10.89
"125","MITOOMA","KANYABWANGA",912,10.56
"1","KOLE","ABOKE",908.5,10.23
"162","BUSHENYI","KYAMUHUNGA",876,9.9
"30","LIRA","BARR",864.5,9.57
"165","HOIMA","KYANGWALI",839.5,9.24
"12","KOLE","ALITO",837,8.91
"184","BUSIA","LUMINO",837,8.91
"137","SERERE","KATETA",815,8.25
"110","TORORO","IYOLWA",811.5,7.92
"132","MITOOMA","KASHENSHERO",807,7.59
"145","KANUNGU","KIRIMA",795,7.26
"166","KYENJOJO","KYARUSOZI",793,6.93
"277","MITOOMA","RUREHE",780,6.6
"168","SERERE","KYERE",779.5,6.27
"105","OYAM","ICEME",768.5,5.94
"83","IGANGA","BUYANGA",760.5,5.61
"102","SOROTI","GWERI",758.5,5.28
"154","MITOOMA","KIYANGA",750,4.95
"278","RUBIRIZI","RUTOTO",750,4.95
"128","BUGIRI","KAPYANGA",744,4.29
"190","NAMUTUMBA","MAGADA",737,3.96
"241","KANUNGU","NYAMIRAMA",733.5,3.63
"182","OYAM","LORO",720.5,3.3
"42","KYENJOJO","BUGAAKI",706.5,2.97
"87","MASINDI","BWIJANGA",699,2.64
"82","BUSIA","BUYANGA",679.5,2.31
"147","KIRYANDONGO","KIRYANDONGO",672,1.98
"279","RUBIRIZI","RYERU",667.5,1.65
"28","KOLE","BALA",665.5,1.32
"221","IGANGA","NAMBALE",657,0.99
"81","BUGIRI","BUWUNGA",653.5,0.66
"103","KABAROLE","HAKIBAALE",651.5,0.33
