"","District","Subcounty","Food InsecureLandslide","Food Insecure Landslide Score"
"211","MOROTO","RUPA",1695,42.5
"87","NAPAK","IRIIRI",1565.5,41.65
"163","NAPAK","MATANY",1408.5,40.8
"180","NAKAPIRIPIRIT","NAMALU",815.5,39.95
"154","NAPAK","LOTOME",619.5,39.1
"202","KOTIDO","PANYANGARA",607,38.25
"228","MOROTO","TAPAC",605.5,37.4
"194","KASESE","NYAMWAMBA DIVISION",587,36.55
"175","KISORO","MURAMBA",583.5,35.7
"52","MBALE","BUNGOKHO MUTOTO",553.5,34.85
"1","AMUDAT","AMUDAT",498,34
"110","AMUDAT","KARITA",490.5,33.15
"198","KISORO","NYARUSIZA",482,32.3
"93","NAKAPIRIPIRIT","KAKOMONGOLE",446.5,31.45
"82","RUBANDA","HAMURWA",444,30.6
"201","KATAKWI","PALAM",432.5,29.75
"124","NTUNGAMO","KAYONZA",425,28.9
"51","MBALE","BUNGOKHO",423.5,28.05
"128","KABAROLE","KICWAMBA",421,27.2
"120","MOROTO","KATIKEKILE",413,26.35
"190","KISORO","NYAKABANDE",350.5,25.5
"181","MBALE","NAMANYONYI",325,24.65
"208","NTUNGAMO","RUGARAMA",323.5,23.8
"6","RUBANDA","BUBAARE",300.5,22.95
"75","KISORO","CHAHI",298.5,22.1
"226","KABALE","SOUTHERN DIVISION",289,21.25
"153","NAKAPIRIPIRIT","LOREGAE",281,20.4
"59","BUDUDA","BUSHIKA",276.5,19.55
"197","RUKUNGIRI","NYARUSHANJE",275.5,18.7
"24","MBALE","BUKIENDE",268.5,17.85
"17","KABALE","BUHARA",267.5,17
"67","SIRONKO","BUWALASI",266,16.15
"191","KISORO","NYAKINAMA",262,15.3
"107","KABAROLE","KARAMBI",260,14.45
"183","NAPAK","NAPAK TOWN COUNCIL",260,14.45
"123","KANUNGU","KAYONZA",254,12.75
"113","KABAROLE","KASENDA",248,11.9
"73","KABALE","CENTRAL DIVISION",247.5,11.05
"56","MBALE","BUSANO",246,10.2
"193","KASESE","NYAKIYUMBU",243.5,9.35
"97","RUKIGA","KAMWEZI",240.5,8.5
"61","MBALE","BUSOBA",238,7.65
"196","KISORO","NYARUBUYE",237.5,6.8
"149","KABALE","KYANAMIRA",232,5.95
"192","RUKUNGIRI","NYAKISHENYI",228,5.1
"117","RUBIRIZI","KATANDA",225,4.25
"160","KASESE","MALIBA",221,3.4
"232","KABAROLE","WESTERN DIVISION",219,2.55
"141","KABALE","KITUMBA",218.5,1.7
"13","RUBANDA","BUFUNDI",214.5,0.85
