"","District","Subcounty","Indecent DwellingsHailstorms","Indecent Dwellings Hailstorms Score"
"410","MAYUGE","MALONGO",10740,37.5
"402","JINJA","MAFUBIRA",8463.5,36.75
"231","MBARARA","KAKOBA DIVISION",7421,36
"500","BUIKWE","NJERU DIVISION",7034.5,35.25
"391","SSEMBABULE","LWEBITAKULI",6529,34.5
"346","MUBENDE","KITENGA",6526,33.75
"338","KAKUMIRO","KISIITA",6082,33
"371","KYENJOJO","KYARUSOZI",5979.5,32.25
"291","KAYUNGA","KAYONZA",5798,31.5
"422","SSEMBABULE","MATEETE",5712,30.75
"529","MASAKA","NYENDO-SSENYANGE DIVISION",5662.5,30
"264","BUGIRI","KAPYANGA",5586.5,29.25
"472","MUKONO","NAKISUNGA",5582,28.5
"349","MUBENDE","KITUMBI",5566.5,27.75
"337","LWENGO","KISEKKA",5520.5,27
"256","KAYUNGA","KANGULUMIRA",5433.5,26.25
"393","LWENGO","LWENGO",5408,25.5
"210","GOMBA","KABULASOKE",5353.5,24.75
"105","KAYUNGA","BUSAANA",5235,24
"538","ARUA","PAJULU",5231,23.25
"324","ISINGIRO","KIKAGATE",5182,22.5
"44","JINJA","BUGEMBE TOWN COUNCIL",5167,21.75
"530","BUIKWE","NYENGA DIVISION",5162,21
"117","MITYANA","BUSIMBI DIVISION",5117.5,20.25
"218","BUKEDEA","KACHUMBALA",5078,19.5
"129","JINJA","BUTAGAYA",5003.5,18.75
"510","MUKONO","NTENJERU",4939.5,18
"283","MUBENDE","KASSANDA",4935.5,17.25
"31","JINJA","BUDONDO",4867.5,16.5
"504","MPIGI","NKOZI",4826.5,15.75
"141","MUBENDE","BUTOLOOGO",4776.5,15
"154","MASAKA","BUWUNGA",4767.5,14.25
"466","BUIKWE","NAJJA",4743.5,13.5
"290","BUIKWE","KAWOLO DIVISION",4731,12.75
"450","MASAKA","MUKUNGWE",4714.5,12
"387","RAKAI","LWAMAGGWA",4676.5,11.25
"152","JINJA","BUWENGE",4655.5,10.5
"75","KALUNGU","BUKULULA",4628.5,9.75
"560","NTUNGAMO","RUHAAMA",4581.5,9
"13","BUKOMANSIMBI","BIGASA",4564.5,8.25
"506","MBALE","NORTHERN DIVISION",4524,7.5
"598","BUIKWE","WAKISI DIVISION",4443.5,6.75
"235","RAKAI","KAKUUTO",4440,6
"537","TORORO","OSUKURU",4432.5,5.25
"341","KAMULI","KISOZI",4424,4.5
"347","KAYUNGA","KITIMBWA",4421.5,3.75
"193","MBALE","INDUSTRIAL DIVISON",4416,3
"595","ARUA","VURRA",4379,2.25
"520","ISINGIRO","NYAKITUNDA",4328,1.5
"491","KAYUNGA","NAZIGO",4321,0.75
