"","District","Subcounty","OrphansDrought","Orphans Drought Score"
"207","NAKAPIRIPIRIT","NABILATUK",631.5,35
"290","YUMBE","ROMOGI",537.5,34.3
"175","NAKAPIRIPIRIT","LOLACHAT",418.5,33.6
"152","YUMBE","KULULU",403,32.9
"208","MOROTO","NADUNGET",351,32.2
"184","ABIM","LOTUKEI",293.5,31.5
"276","KOTIDO","PANYANGARA",286.5,30.8
"266","ADJUMANI","PAKELE",253.5,30.1
"286","KOTIDO","RENGEN",252,29.4
"156","HOIMA","KYANGWALI",242,28.7
"251","KITGUM","OROM",237,28
"183","NAPAK","LOTOME",223.5,27.3
"146","YUMBE","KOCHI",221.5,26.6
"3","ABIM","ABIM",221,25.9
"191","NAPAK","MATANY",213,25.2
"113","KOTIDO","KANAWAT DIVISION",202.5,24.5
"116","KOTIDO","KAPADAKOOK DIVISION",201,23.8
"291","MOROTO","RUPA",194,23.1
"255","AMURU","PABO",185.5,22.4
"18","ABIM","ALEREK",178.5,21.7
"8","ADJUMANI","ADJUMANI TOWN COUNCIL",177.5,21
"94","NAPAK","IRIIRI",175.5,20.3
"177","NAPAK","LOPEEI",172.5,19.6
"67","BULAMBULI","BULUGANYA",171.5,18.9
"232","YUMBE","ODRAVU",167.5,18.2
"98","KAABONG","KAABONG TOWN COUNCIL",163,17.5
"192","MOYO","METU",160,16.8
"193","NAKAPIRIPIRIT","MORUITA",153,16.1
"194","ABIM","MORULEM",151,15.4
"19","NWOYA","ALERO",150.5,14.7
"223","NAPAK","NGOLERIET",148,14
"87","ADJUMANI","DZAIPI",147.5,13.3
"173","NAPAK","LOKOPO",144,12.6
"181","AMUDAT","LOROO",143,11.9
"4","ABIM","ABIM TOWN COUNCIL",142.5,11.2
"24","AMUDAT","AMUDAT TOWN COUNCIL",141,10.5
"38","AMURU","ATTIAK",138.5,9.8
"297","BULAMBULI","SISIYI",133.5,9.1
"103","KOTIDO","KACHERI",132,8.4
"142","KIRYANDONGO","KIRYANDONGO",131.5,7.7
"28","AMURU","AMURU",128.5,7
"228","ABIM","NYAKWAE",125,6.3
"145","NWOYA","KOCH-GOMA",124.5,5.6
"278","PAKWACH","PANYIMUR",120.5,4.9
"23","AMUDAT","AMUDAT",120,4.2
"138","HOIMA","KIGOROBYA",118,3.5
"99","KAABONG","KAABONG WEST",117,2.8
"264","PADER","PAJULE",112,2.1
"265","MASINDI","PAKANYI",111,1.4
"136","YUMBE","KERWA",110,0.7
