"","District","Subcounty","Poor Access to EducationLandslide","Poor Access to Education Landslide Score"
"87","NAPAK","IRIIRI",1708.5,20
"1","AMUDAT","AMUDAT",1499,19.6
"110","AMUDAT","KARITA",1378.5,19.2
"228","MOROTO","TAPAC",977,18.8
"128","KABAROLE","KICWAMBA",763,18.4
"152","KASESE","LAKE KATWE",714,18
"166","NAKAPIRIPIRIT","MORUITA",700.5,17.6
"211","MOROTO","RUPA",645,17.2
"163","NAPAK","MATANY",628.5,16.8
"174","KASESE","MUNKUNYU",615,16.4
"160","KASESE","MALIBA",588,16
"20","KASESE","BUHUHIRA",536.5,15.6
"70","KASESE","BWESUMBU",526,15.2
"115","RUKIGA","KASHAMBYA",468.5,14.8
"186","KWEEN","NGENGE",435,14.4
"180","NAKAPIRIPIRIT","NAMALU",430,14
"120","MOROTO","KATIKEKILE",419,13.6
"205","KABALE","RUBAYA",413,13.2
"13","RUBANDA","BUFUNDI",392,12.8
"150","KASESE","KYARUMBA",382.5,12.4
"171","RUBANDA","MUKO",378.5,12
"113","KABAROLE","KASENDA",346.5,11.6
"123","KANUNGU","KAYONZA",343.5,11.2
"90","BUNYANGABU","KABONERO",325.5,10.8
"16","KASESE","BUGOYE",325,10.4
"35","BULAMBULI","BULAAGO",325,10.4
"194","KASESE","NYAMWAMBA DIVISION",324,9.6
"6","RUBANDA","BUBAARE",299.5,9.2
"175","KISORO","MURAMBA",299.5,9.2
"27","NAMISINDWA","BUKOKHO",298.5,8.4
"196","KISORO","NYARUBUYE",297.5,8
"82","RUBANDA","HAMURWA",297,7.6
"209","RUBANDA","RUHIJA",289,7.2
"135","KISORO","KIRUNDO",285.5,6.8
"130","KANUNGU","KINAABA",280,6.4
"195","RUBANDA","NYAMWERU",279.5,6
"200","KISORO","NYUNDO",274.5,5.6
"210","KASESE","RUKOKI",268.5,5.2
"29","BUNDIBUGYO","BUKONZO",262.5,4.8
"63","KABALE","BUTANDA",262.5,4.8
"136","KASESE","KISINGA",262,4
"197","RUKUNGIRI","NYARUSHANJE",262,4
"213","KANUNGU","RUTENGA",251.5,3.2
"57","KISORO","BUSANZA",244,2.8
"162","BULAMBULI","MASIIRA",240.5,2.4
"192","RUKUNGIRI","NYAKISHENYI",238.5,2
"151","KASESE","KYONDO",234,1.6
"129","KASESE","KILEMBE",224,1.2
"208","NTUNGAMO","RUGARAMA",224,1.2
"124","NTUNGAMO","KAYONZA",221.5,0.4
