"","District","Subcounty","Poor Access to HealthcareDrought","Poor Access to Healthcare Drought Score"
"23","AMUDAT","AMUDAT",5133,25
"251","KITGUM","OROM",4684.5,24.5
"156","HOIMA","KYANGWALI",3959,24
"181","AMUDAT","LOROO",3929,23.5
"175","NAKAPIRIPIRIT","LOLACHAT",3388.5,23
"102","HOIMA","KABWOYA",3358.5,22.5
"103","KOTIDO","KACHERI",3048,22
"142","KIRYANDONGO","KIRYANDONGO",2408,21.5
"173","NAPAK","LOKOPO",2404.5,21
"193","NAKAPIRIPIRIT","MORUITA",2394,20.5
"299","MOROTO","TAPAC",2315,20
"255","AMURU","PABO",2249,19.5
"247","ALEBTONG","OMORO",2200,19
"19","NWOYA","ALERO",2108,18.5
"191","NAPAK","MATANY",2073,18
"286","KOTIDO","RENGEN",2053.5,17.5
"94","NAPAK","IRIIRI",2045,17
"104","BUKEDEA","KACHUMBALA",2006.5,16.5
"208","MOROTO","NADUNGET",1955,16
"138","HOIMA","KIGOROBYA",1801,15.5
"265","MASINDI","PAKANYI",1770.5,15
"189","BUKEDEA","MALERA",1737,14.5
"291","MOROTO","RUPA",1727,14
"28","AMURU","AMURU",1703.5,13.5
"127","AMUDAT","KARITA",1682,13
"177","NAPAK","LOPEEI",1666.5,12.5
"288","ARUA","RIGBO",1642.5,12
"134","KAABONG","KAWALAKOL",1626,11.5
"145","NWOYA","KOCH-GOMA",1622,11
"249","KUMI","ONGINO",1606,10.5
"53","BUKEDEA","BUKEDEA",1597.5,10
"207","NAKAPIRIPIRIT","NABILATUK",1596,9.5
"199","KAGADI","MPEEFU",1541.5,9
"133","SOROTI","KATINE",1537.5,8.5
"146","YUMBE","KOCHI",1535.5,8
"285","NWOYA","PURONGO",1488.5,7.5
"38","AMURU","ATTIAK",1466,7
"72","HOIMA","BUSERUKA",1391.5,6.5
"47","MASINDI","BUDONGO",1378.5,6
"131","KAABONG","KATHILE",1366,5.5
"40","ALEBTONG","AWEI",1319.5,5
"147","BUKEDEA","KOLIR",1292,4.5
"21","ALEBTONG","ALOI",1287,4
"202","KUMI","MUKONGORO",1285,3.5
"240","ARUA","OKOLLO",1255,3
"65","BULIISA","BULIISA",1253,2.5
"136","YUMBE","KERWA",1204,2
"214","NAKAPIRIPIRIT","NAMALU",1180,1.5
"117","KAABONG","KAPEDO",1177,1
"278","PAKWACH","PANYIMUR",1133.5,0.5
