"","District","Subcounty","PropertyLandslide","Property Landslide Score"
"5","KABALE","KABALE NORTHERN DIVISION",448,10
"11","MANAFWA","KHABUTOOLA",330,9.5
"16","BUDUDA","NALWANZA",271,9
"6","MBARARA","KAGONGI",250,8.5
"12","KASESE","KISINGA",206,8
"9","KAABONG","KAWALAKOL",203,7.5
"3","MBALE","BUSIU TOWN COUNCIL",131,7
"10","IBANDA","KEIHANGARA",120,6.5
"18","KISORO","NYARUBUYE",107,6
"4","SIRONKO","BUTANDIGA",62,5.5
"19","KABAROLE","RUTEETE",54,5
"15","BULAMBULI","MUYEMBE",40,4.5
"1","BUHWEJU","BITSYA",3,4
"20","BUKWO","SENENDET",1,3.5
"2","BUNDIBUGYO","BURONDO",0,3
"7","NTOROKO","KANARA TOWN COUNCIL",0,3
"8","KAPCHORWA","KAPTANYA",0,3
"13","BUKEDEA","KOLIR",0,3
"14","BUSHENYI","KYAMUHUNGA TOWN COUNCIL",0,3
"17","WAKISO","NAMUGONGO DIVISION",0,3
