"","District","Subcounty","Semi-permanent HousingFlood","Semi-permanent Housing Flood Score"
"180","HOIMA","KABWOYA",12430.5,42.5
"308","HOIMA","KYANGWALI",10333,41.65
"178","GOMBA","KABULASOKE",10027.5,40.8
"52","BUKOMANSIMBI","BIGASA",9745.5,39.95
"188","KAKUMIRO","KAKINDO",8683.5,39.1
"243","KAYUNGA","KAYONZA",8668.5,38.25
"49","KAMULI","BALAWOLI",8410.5,37.4
"278","LWENGO","KISEKKA",8350.5,36.55
"452","RUKUNGIRI","NYARUSHANJE",8284,35.7
"67","KYENJOJO","BUFUNJO",7794,34.85
"72","HOIMA","BUHIMBA",7708.5,34
"81","KALUNGU","BUKULULA",7687.5,33.15
"288","KAYUNGA","KITIMBWA",7246.5,32.3
"295","HOIMA","KIZIRANFUMBI",7243.5,31.45
"155","KYEGEGWA","HAPUUYO",7202,30.6
"276","KIRYANDONGO","KIRYANDONGO",7111.5,29.75
"364","KASESE","MALIBA",6890,28.9
"545","LUWERO","ZIROBWE",6769.5,28.05
"251","MUBENDE","KIBALINGA",6698,27.2
"255","KABAROLE","KICWAMBA",6690,26.35
"434","KAMWENGE","NKOMA",6666,25.5
"154","KABAROLE","HAKIBAALE",6638,24.65
"283","KAMULI","KISOZI",6574,23.8
"285","BUKOMANSIMBI","KITANDA",6564,22.95
"244","KAYUNGA","KAYUNGA",6348,22.1
"437","MPIGI","NKOZI",6174,21.25
"120","MPIGI","BUWAMA",6090,20.4
"125","RUKUNGIRI","BUYANJA",5999,19.55
"526","MUKONO","SEETA NAMUGANGA",5862,18.7
"68","KYENJOJO","BUGAAKI",5694,17.85
"438","KIRUHURA","NKUNGU",5670,17
"267","LUWERO","KIKYUSA",5638.5,16.15
"186","KAMWENGE","KAHUNGE",5477,15.3
"286","KAMULI","KITAYUNJWA",5438,14.45
"510","ARUA","RIGBO",5434.5,13.6
"296","LWENGO","KKINGO",5418,12.75
"185","BUYENDE","KAGULU",5396,11.9
"70","BUYENDE","BUGAYA",5392.5,11.05
"409","IGANGA","NAMBALE",5370,10.2
"66","IBANDA","BUFUNDA DIVISION",5265,9.35
"361","KAMWENGE","MAHYORO",5129,8.5
"319","KASESE","LAKE KATWE",5107.5,7.65
"124","IGANGA","BUYANGA",5075,6.8
"130","RUKUNGIRI","BWAMBARA",5062,5.95
"226","KAKUMIRO","KASAMBYA",5027,5.1
"358","NAMUTUMBA","MAGADA",4997,4.25
"95","MBALE","BUNGOKHO",4918,3.4
"345","SSEMBABULE","LUGUSULU",4896,2.55
"57","MITOOMA","BITEREKO",4789,1.7
"108","KABAROLE","BUSORO",4759,0.85
