"","District","Subcounty","Slope Area Km2Lightning","Slope Area Km2 Lightning Score"
"140","KANUNGU","KAYONZA",248.15835,42.5
"86","RUKUNGIRI","BWAMBARA",90.92385,41.65
"206","KANUNGU","MPUNGU",87.66495,40.8
"154","MITOOMA","KIYANGA",70.4376,39.95
"63","BUHWEJU","BURERE",68.65605,39.1
"279","RUBIRIZI","RUTOTO",61.83675,38.25
"239","BUSHENYI","NYABUBARE",60.1938,37.4
"44","RUKUNGIRI","BUGANGARI",56.9916,36.55
"162","BUSHENYI","KYAMUHUNGA",53.0253,35.7
"240","RUKUNGIRI","NYAKAGYEME",53.0253,35.7
"145","KANUNGU","KIRIMA",51.408,34
"34","MITOOMA","BITEREKO",48.0033,33.15
"163","BUSHENYI","KYAMUHUNGA TOWN COUNCIL",45.4923,32.3
"276","RUKUNGIRI","RUHINDA",44.6715,31.45
"35","BUSHENYI","BITOOMA",39.13245,30.6
"103","KABAROLE","HAKIBAALE",39.0078,29.75
"120","KANUNGU","KAMBUGA",36.05715,28.9
"91","BUKWO","CHEPKWASTA",35.61165,28.05
"126","KANUNGU","KANYANTOROGO",34.79085,27.2
"125","MITOOMA","KANYABWANGA",34.5465,26.35
"32","KWEEN","BENET",34.3908,25.5
"165","HOIMA","KYANGWALI",31.65165,24.65
"280","RUBIRIZI","RYERU",29.7837,23.8
"39","MASINDI","BUDONGO",26.73315,22.95
"166","KYENJOJO","KYARUSOZI",26.2359,22.1
"61","BULAMBULI","BUMASOBO",25.08615,21.25
"115","HOIMA","KABWOYA",24.912,20.4
"50","KALANGALA","BUJUMBA",24.0705,19.55
"92","BUKWO","CHESOWER",23.69205,18.7
"181","LAMWO","LOKUNG",20.09295,17.85
"51","BUDUDA","BUKALASI",19.98585,17
"297","AGAGO","WOL",19.278,16.15
"277","BUSHENYI","RUHUMURO",19.1142,15.3
"286","BUKWO","SUAM",19.0125,14.45
"42","KYENJOJO","BUGAAKI",18.73845,13.6
"203","MITOOMA","MITOOMA",18.5841,12.75
"158","MUKONO","KOOME ISLAND",17.25435,11.9
"139","KYENJOJO","KATOOKE",16.0731,11.05
"242","KANUNGU","NYAMIRAMA",15.6114,10.2
"53","BULAMBULI","BULAAGO",15.51555,9.35
"161","HOIMA","KYABIGAMBIRE",14.97105,8.5
"46","SIRONKO","BUGITIMWA",14.535,7.65
"278","MITOOMA","RUREHE",14.22495,6.8
"164","KALANGALA","KYAMUSWA",14.22225,5.95
"117","BUSHENYI","KAKANJU",14.05035,5.1
"293","KAPCHORWA","WESTERN DIVISION",13.99815,4.25
"198","BULAMBULI","MASIIRA",13.8564,3.4
"289","ADJUMANI","UKUSIJONI",13.84875,2.55
"124","KANUNGU","KANUNGU TOWN COUNCIL",13.82355,1.7
"255","AMURU","PABO",13.608,0.85
