"","District","Subcounty","Temporary HousingLightning","Temporary Housing Lightning Score"
"58","BUGIRI","BULUGUYI",5694,42.5
"147","KIRYANDONGO","KIRYANDONGO",4633.5,41.65
"250","TORORO","OSUKURU",4608,40.8
"165","HOIMA","KYANGWALI",4602.5,39.95
"254","AMURU","PABO",4417.5,39.1
"207","TORORO","MULANDA",4221,38.25
"182","OYAM","LORO",3758,37.4
"259","MASINDI","PAKANYI",3733.5,36.55
"158","MUKONO","KOOME ISLAND",3708,35.7
"260","ADJUMANI","PAKELE",3551,34.85
"11","NWOYA","ALERO",3544.5,34
"105","OYAM","ICEME",3484,33.15
"196","BUSIA","MASAFU",3414,32.3
"175","AMURU","LAMOGI",3408.5,31.45
"14","AMURU","AMURU",3334.5,30.6
"195","BUSIA","MASABA",3334.5,30.6
"137","SERERE","KATETA",3329,28.9
"200","TORORO","MELLA",3270,28.05
"82","BUSIA","BUYANGA",3210,27.2
"48","BUSIA","BUHEHE",3142.5,26.35
"97","ADJUMANI","DZAIPI",3136.5,25.5
"77","BUSIA","BUTEBA",3092,24.65
"30","LIRA","BARR",3064,23.8
"102","SOROTI","GWERI",3040.5,22.95
"1","KOLE","ABOKE",3036,22.1
"156","NWOYA","KOCH-GOMA",2956.5,21.25
"28","KOLE","BALA",2947.5,20.4
"274","TORORO","RUBONGI",2925,19.55
"115","HOIMA","KABWOYA",2813,18.7
"12","KOLE","ALITO",2748.5,17.85
"39","MASINDI","BUDONGO",2714,17
"110","TORORO","IYOLWA",2709,16.15
"168","SERERE","KYERE",2682,15.3
"271","NWOYA","PURONGO",2680.5,14.45
"247","KOLE","OKWERODOT",2503,13.6
"25","AMURU","ATTIAK",2491,12.75
"27","KOLE","AYER",2471,11.9
"20","SOROTI","ARAPAI",2393,11.05
"192","TORORO","MAGOLA",2370,10.2
"47","SERERE","BUGONDO",2340,9.35
"22","SOROTI","ASURET",2312.5,8.5
"122","SOROTI","KAMUDA",2273,7.65
"269","SERERE","PINGIRE",2155.5,6.8
"2","OYAM","ACABA",2155,5.95
"127","NGORA","KAPIR",2064,5.1
"246","OTUKE","OKWANG",1983.5,4.25
"289","PAKWACH","WADELAI",1976,3.4
"128","BUGIRI","KAPYANGA",1944.5,2.55
"75","NAMAYINGO","BUSWALE",1874.5,1.7
"206","TORORO","MUKUJU",1822.5,0.85
