"","District","Subcounty","Total IlliterateFlood","Total Illiterate Flood Score"
"276","KIRYANDONGO","KIRYANDONGO",23767.5,20
"162","NAPAK","IRIIRI",21904.5,19.6
"180","HOIMA","KABWOYA",18826.5,19.2
"308","HOIMA","KYANGWALI",18429,18.8
"335","NAKAPIRIPIRIT","LOLACHAT",16023,18.4
"185","BUYENDE","KAGULU",15018,18
"481","AMURU","PABO",14532,17.6
"408","NAKAPIRIPIRIT","NAMALU",13653,17.2
"49","KAMULI","BALAWOLI",13647,16.8
"213","KOTIDO","KAPADAKOOK DIVISION",13191,16.4
"221","AMUDAT","KARITA",13084.5,16
"386","KIRYANDONGO","MUTUNDA",13020,15.6
"390","NAKAPIRIPIRIT","NABILATUK",12513,15.2
"402","KOTIDO","NAKAPELIMORU",12423,14.8
"243","KAYUNGA","KAYONZA",12198,14.4
"31","AMURU","AMURU",11890.5,14
"338","NAKAPIRIPIRIT","LOREGAE",11635.5,13.6
"487","MASINDI","PAKANYI",11330,13.2
"333","NAPAK","LOKOPO",11257.5,12.8
"322","AMURU","LAMOGI",10771.5,12.4
"153","SOROTI","GWERI",10194,12
"26","NWOYA","ALERO",9807,11.6
"237","KATAKWI","KATAKWI",9739.5,11.2
"220","BUGIRI","KAPYANGA",9673,10.8
"36","APAC","APAC",9655.5,10.4
"288","KAYUNGA","KITIMBWA",9076.5,10
"488","ADJUMANI","PAKELE",8865,9.6
"376","NAKAPIRIPIRIT","MORUITA",8839.5,9.2
"188","KAKUMIRO","KAKINDO",8793,8.8
"64","MASINDI","BUDONGO",8772,8.4
"178","GOMBA","KABULASOKE",8700,8
"238","SERERE","KATETA",8495,7.6
"345","SSEMBABULE","LUGUSULU",8407.5,7.2
"190","NAKAPIRIPIRIT","KAKOMONGOLE",8286,6.8
"358","NAMUTUMBA","MAGADA",8104,6.4
"478","TORORO","OSUKURU",8050,6
"505","NWOYA","PURONGO",7990.5,5.6
"44","AMURU","ATTIAK",7969.5,5.2
"67","KYENJOJO","BUFUNJO",7916,4.8
"259","KIRYANDONGO","KIGUMBA",7807,4.4
"435","BUYENDE","NKONDO",7785,4
"510","ARUA","RIGBO",7689,3.6
"84","NAMUTUMBA","BULANGE",7661,3.2
"341","OYAM","LORO",7440,2.8
"124","IGANGA","BUYANGA",7384,2.4
"337","NAPAK","LOPEEI",7351.5,2
"363","BUKEDEA","MALERA",7344,1.6
"472","KUMI","ONGINO",7272,1.2
"385","TORORO","MULANDA",7128,0.8
"123","BUGIRI","BUWUNGA",7069,0.4
