"","District","Subcounty","Total IlliterateLandslide","Total Illiterate Landslide Score"
"87","NAPAK","IRIIRI",7301.5,20
"180","NAKAPIRIPIRIT","NAMALU",4551,19.6
"110","AMUDAT","KARITA",4361.5,19.2
"211","MOROTO","RUPA",4349,18.8
"1","AMUDAT","AMUDAT",4061.5,18.4
"153","NAKAPIRIPIRIT","LOREGAE",3878.5,18
"163","NAPAK","MATANY",3720,17.6
"175","KISORO","MURAMBA",3661.5,17.2
"202","KOTIDO","PANYANGARA",3300.5,16.8
"160","KASESE","MALIBA",3059,16.4
"150","KASESE","KYARUMBA",3048.5,16
"198","KISORO","NYARUSIZA",2955.5,15.6
"166","NAKAPIRIPIRIT","MORUITA",2946.5,15.2
"174","KASESE","MUNKUNYU",2889.5,14.8
"193","KASESE","NYAKIYUMBU",2887,14.4
"228","MOROTO","TAPAC",2856,14
"93","NAKAPIRIPIRIT","KAKOMONGOLE",2762,13.6
"128","KABAROLE","KICWAMBA",2574.5,13.2
"51","MBALE","BUNGOKHO",2437.5,12.8
"197","RUKUNGIRI","NYARUSHANJE",2431.5,12.4
"16","KASESE","BUGOYE",2397.5,12
"194","KASESE","NYAMWAMBA DIVISION",2366,11.6
"181","MBALE","NAMANYONYI",2176.5,11.2
"171","RUBANDA","MUKO",2127,10.8
"52","MBALE","BUNGOKHO MUTOTO",2126,10.4
"6","RUBANDA","BUBAARE",2049,10
"97","RUKIGA","KAMWEZI",2027,9.6
"108","KASESE","KARAMBI",1997,9.2
"136","KASESE","KISINGA",1991,8.8
"123","KANUNGU","KAYONZA",1975.5,8.4
"75","KISORO","CHAHI",1965.5,8
"24","MBALE","BUKIENDE",1959,7.6
"190","KISORO","NYAKABANDE",1943.5,7.2
"13","RUBANDA","BUFUNDI",1891.5,6.8
"154","NAPAK","LOTOME",1860,6.4
"8","MBALE","BUBYANGU",1820,6
"22","BULAMBULI","BUKHALU",1816,5.6
"192","RUKUNGIRI","NYAKISHENYI",1816,5.6
"152","KASESE","LAKE KATWE",1803,4.8
"191","KISORO","NYAKINAMA",1791,4.4
"113","KABAROLE","KASENDA",1713.5,4
"120","MOROTO","KATIKEKILE",1708,3.6
"208","NTUNGAMO","RUGARAMA",1674.5,3.2
"82","RUBANDA","HAMURWA",1670.5,2.8
"59","BUDUDA","BUSHIKA",1664.5,2.4
"17","KABALE","BUHARA",1654,2
"151","KASESE","KYONDO",1625.5,1.6
"196","KISORO","NYARUBUYE",1602,1.2
"96","KABALE","KAMUGANGUZI",1575,0.8
"61","MBALE","BUSOBA",1560.5,0.4
