"","District","Subcounty","Youth with DisabilitiesHailstorms","Youth with Disabilities Hailstorms Score"
"404","NAMISINDWA","MAGALE",858,16.5
"402","JINJA","MAFUBIRA",856.5,16.17
"187","BUTALEJA","HIMUTU",796,15.84
"371","KYENJOJO","KYARUSOZI",714.5,15.51
"410","MAYUGE","MALONGO",660.5,15.18
"591","NAMISINDWA","TSEKULULU",642,14.85
"500","BUIKWE","NJERU DIVISION",596,14.52
"403","NAMUTUMBA","MAGADA",571,14.19
"452","TORORO","MULANDA",566.5,13.86
"391","SSEMBABULE","LWEBITAKULI",550.5,13.53
"346","MUBENDE","KITENGA",549,13.2
"264","BUGIRI","KAPYANGA",546,12.87
"530","BUIKWE","NYENGA DIVISION",539.5,12.54
"83","BUGIRI","BULESA",497.5,12.21
"316","MUBENDE","KIGANDA",497.5,12.21
"152","JINJA","BUWENGE",490,11.55
"31","JINJA","BUDONDO",475.5,11.22
"341","KAMULI","KISOZI",472.5,10.89
"537","TORORO","OSUKURU",471.5,10.56
"338","KAKUMIRO","KISIITA",466.5,10.23
"507","KYANKWANZI","NSAMBYA",463.5,9.9
"349","MUBENDE","KITUMBI",451,9.57
"283","MUBENDE","KASSANDA",445.5,9.24
"256","KAYUNGA","KANGULUMIRA",440,8.91
"590","KIBUKU","TIRINYI",439.5,8.58
"395","BUVUMA","LYABAANA",420,8.25
"393","LWENGO","LWENGO",412,7.92
"129","JINJA","BUTAGAYA",411.5,7.59
"560","NTUNGAMO","RUHAAMA",411.5,7.59
"378","ARUA","LOGIRI",410.5,6.93
"111","JINJA","BUSEDDE",409,6.6
"317","MUBENDE","KIGANDO",407.5,6.27
"104","KIRUHURA","BURUNGA",404,5.94
"44","JINJA","BUGEMBE TOWN COUNCIL",401,5.61
"533","ARUA","OKOLLO",399.5,5.28
"449","TORORO","MUKUJU",399,4.95
"272","KAKUMIRO","KASAMBYA",395.5,4.62
"538","ARUA","PAJULU",394,4.29
"554","TORORO","RUBONGI",393.5,3.96
"130","BUTALEJA","BUTALEJA",391.5,3.63
"466","BUIKWE","NAJJA",388,3.3
"481","KAMULI","NAMASAGALI",387.5,2.97
"105","KAYUNGA","BUSAANA",384.5,2.64
"313","KABAROLE","KICWAMBA",382.5,2.31
"488","BUTALEJA","NAWANJOFU",381.5,1.98
"471","IGANGA","NAKIGO",377.5,1.65
"189","IGANGA","IBULANKU",373,1.32
"80","NAMUTUMBA","BULANGE",372.5,0.99
"345","KAMULI","KITAYUNJWA",372.5,0.99
"300","KIRUHURA","KENSHUNGA",370.5,0.33
