"Event","Impact","Total Population","Internet Users","Radio Users","Community Announcements","Phone Users","% Total","Internet Users","Radio Users","Community Announcements","Phone Users","% Total"
"Drought","Moderate","21,094,593","1,023,921","2,494,615","178,981","311,497","19.00","4.85","11.83","0.85","1.48","98.36"
"Hailstorms","Moderate","18,251,901","1,282,582","2,151,578","164,395","313,000","21.43","7.03","11.79","0.90","1.71","98.36"
"Lightning","Moderate","24,035,428","1,501,484","2,695,721","240,236","391,264","20.09","6.25","11.22","1.00","1.63","98.36"
"Landslide","Moderate","17,099,049","  662,370","2,173,534","157,723","213,535","18.76","3.87","12.71","0.92","1.25","98.36"
"Flood","Moderate"," 2,621,876","   88,818","  357,408"," 21,896"," 31,605","19.06","3.39","13.63","0.84","1.21","98.36"
