"","Event","Impact","District","Male","Female","Total","Children","male.phn","female.phn","total.phn","male.www","female.www","total.www","radio.inf","com.ann.inf","tel.inf","subs.ag","two.meals","child.pwd","youth.pwd","old.pwd","male.lit","female.lit","total.lit","hlth.dist","prisch.dist","elderly","orphans","semiperm_housing","temp_housing","dwelling","neet","Male.pc","Female.pc","Total.pc","Children.pc","male.phn.pc","female.phn.pc","total.phn.pc","male.www.pc","female.www.pc","total.www.pc","radio.inf.pc","com.ann.inf.pc","tel.inf.pc","subs.ag.pc","two.meals.pc","child.pwd.pc","youth.pwd.pc","old.pwd.pc","male.lit.pc","female.lit.pc","total.lit.pc","hlth.dist.pc","prisch.dist.pc","elderly.pc","orphans.pc","semiperm_housing.pc","temp_housing.pc","dwelling.pc","neet.pc"
"1","Lightning","High","ADJUMANI"," 85,489"," 92,661","178,150"," 62,371","16,470","14,301","30,771"," 3,961","1,518"," 5,479"," 9,210","6,222","4,444","21,247"," 6,886"," 5,240"," 2,735"," 3,057"," 6,914","23,827","30,741"," 5,731"," 4,087"," 3,452","1,421"," 8,802","23,376","32,865","10,428","47.99","52.01","100","35.01"," 9.25"," 8.03","17.27","2.22","0.85","3.08"," 5.17","3.49","2.49","11.93","3.87"," 2.94","1.54","1.72","3.88","13.37","17.26"," 3.22","2.29","1.94","0.80"," 4.94","13.12","18.45"," 5.85"
"2","Lightning","High","AGAGO"," 41,633"," 44,163"," 85,796"," 29,366"," 7,147"," 2,959","10,106"," 2,409","  830"," 3,239"," 5,248","4,301","1,018","15,607"," 4,327"," 4,210"," 2,202"," 2,589"," 3,015","11,557","14,572"," 6,067"," 1,996"," 2,600","  697"," 3,281","12,958","16,594"," 1,698","48.53","51.47","100","34.23"," 8.33"," 3.45","11.78","2.81","0.97","3.78"," 6.12","5.01","1.19","18.19","5.04"," 4.91","2.57","3.02","3.51","13.47","16.98"," 7.07","2.33","3.03","0.81"," 3.82","15.10","19.34"," 1.98"
"3","Lightning","High","AMURU"," 91,284"," 95,412","186,696"," 62,348","17,672"," 9,856","27,528"," 5,165","2,166"," 7,331","12,987","5,144","3,497","31,600","11,073"," 7,549"," 4,612"," 3,984"," 7,597","24,103","31,700","14,172"," 9,563"," 4,380","1,223"," 6,750","28,772","36,534"," 5,211","48.89","51.11","100","33.40"," 9.47"," 5.28","14.74","2.77","1.16","3.93"," 6.96","2.76","1.87","16.93","5.93"," 4.04","2.47","2.13","4.07","12.91","16.98"," 7.59","5.12","2.35","0.66"," 3.62","15.41","19.57"," 2.79"
"4","Lightning","High","ARUA","  4,663","  5,119","  9,782","  3,435","   864","   354"," 1,218","   263","   64","   327","   966","   75","  162"," 1,753","   268","   398","   330","   265","   476"," 1,249"," 1,725","   221","   242","   231","   14","   126"," 1,742"," 1,886","   106","47.67","52.33","100","35.12"," 8.83"," 3.62","12.45","2.69","0.65","3.34"," 9.88","0.77","1.66","17.92","2.74"," 4.07","3.37","2.71","4.87","12.77","17.63"," 2.26","2.47","2.36","0.14"," 1.29","17.81","19.28"," 1.08"
"5","Lightning","High","BUDAKA"," 14,182"," 14,649"," 28,831"," 10,265"," 2,469","   899"," 3,368","   190","   67","   257"," 2,496","   65","   96"," 4,649","   151"," 1,026","   643","   703"," 1,847"," 3,547"," 5,394"," 1,151","   234","   953","   47"," 3,188"," 1,009"," 4,950","   134","49.19","50.81","100","35.60"," 8.56"," 3.12","11.68","0.66","0.23","0.89"," 8.66","0.23","0.33","16.13","0.52"," 3.56","2.23","2.44","6.41","12.30","18.71"," 3.99","0.81","3.31","0.16","11.06"," 3.50","17.17"," 0.46"
"6","Lightning","High","BUDUDA","  6,510","  6,396"," 12,906","  4,241"," 1,269","   676"," 1,945","   243","  110","   353"," 1,574","  104","   85"," 2,231","   335"," 1,204","   562","   529","   943"," 1,143"," 2,086","   663","   336","   485","   68"," 2,318","   296"," 2,678","   112","50.44","49.56","100","32.86"," 9.83"," 5.24","15.07","1.88","0.85","2.74","12.20","0.81","0.66","17.29","2.60"," 9.33","4.35","4.10","7.31"," 8.86","16.16"," 5.14","2.60","3.76","0.53","17.96"," 2.29","20.75"," 0.87"
"7","Lightning","High","BUGIRI","185,925","196,988","382,913","132,134","41,419","27,364","68,783"," 5,425","2,826"," 8,251","42,661","3,871","3,081","60,150"," 4,575","12,472"," 7,892"," 9,211","19,785","40,745","60,530","12,427"," 3,562"," 9,952","1,158","26,810","25,890","73,490"," 7,462","48.56","51.44","100","34.51","10.82"," 7.15","17.96","1.42","0.74","2.15","11.14","1.01","0.80","15.71","1.19"," 3.26","2.06","2.41","5.17","10.64","15.81"," 3.25","0.93","2.60","0.30"," 7.00"," 6.76","19.19"," 1.95"
"8","Lightning","Very High","BUGIRI"," 15,379"," 16,032"," 31,411"," 11,343"," 3,203"," 1,804"," 5,007","   223","  103","   326"," 3,261","  454","  140"," 5,376","   295","   937","   677","   726"," 1,958"," 3,698"," 5,656"," 3,360","   650","   764","  104"," 1,449"," 3,796"," 6,070","   305","48.96","51.04","100","36.11","10.20"," 5.74","15.94","0.71","0.33","1.04","10.38","1.45","0.45","17.12","0.94"," 2.98","2.16","2.31","6.23","11.77","18.01","10.70","2.07","2.43","0.33"," 4.61","12.08","19.32"," 0.97"
"9","Lightning","High","BUHWEJU","  9,473","  9,748"," 19,221","  6,361"," 2,419"," 1,426"," 3,845","   445","  332","   777"," 2,513","   53","  367"," 3,304","   382","   339","   438","   410","   929"," 1,594"," 2,523"," 1,571","   872","   465","   69"," 3,154","   387"," 3,819","   287","49.28","50.72","100","33.09","12.59"," 7.42","20.00","2.32","1.73","4.04","13.07","0.28","1.91","17.19","1.99"," 1.76","2.28","2.13","4.83"," 8.29","13.13"," 8.17","4.54","2.42","0.36","16.41"," 2.01","19.87"," 1.49"
"10","Lightning","High","BUKWO"," 21,656"," 21,304"," 42,960"," 14,340"," 4,576"," 2,521"," 7,097"," 1,703","  623"," 2,326"," 2,809","  583","  775"," 6,456","   450","   914","   564","   833"," 1,531"," 3,094"," 4,625","   546","   186","   931","  109"," 4,752"," 3,023"," 7,929","   731","50.41","49.59","100","33.38","10.65"," 5.87","16.52","3.96","1.45","5.41"," 6.54","1.36","1.80","15.03","1.05"," 2.13","1.31","1.94","3.56"," 7.20","10.77"," 1.27","0.43","2.17","0.25","11.06"," 7.04","18.46"," 1.70"
"11","Lightning","High","BULAMBULI"," 23,734"," 22,728"," 46,462"," 13,877"," 4,397"," 2,404"," 6,801","   981","  548"," 1,529"," 6,170","  336","  161"," 7,908","   746"," 1,620","   978"," 1,779"," 2,158"," 3,707"," 5,865"," 3,030"," 1,765"," 1,780","  550"," 8,340","   641"," 9,188"," 2,472","51.08","48.92","100","29.87"," 9.46"," 5.17","14.64","2.11","1.18","3.29","13.28","0.72","0.35","17.02","1.61"," 3.49","2.10","3.83","4.64"," 7.98","12.62"," 6.52","3.80","3.83","1.18","17.95"," 1.38","19.78"," 5.32"
"12","Lightning","High","BULIISA"," 16,485"," 17,365"," 33,850"," 11,364"," 3,920"," 3,108"," 7,028"," 1,080","  365"," 1,445"," 3,730","   16","  496"," 5,707","   434"," 2,226"," 1,142","   937"," 1,730"," 4,731"," 6,461"," 1,277","   346","   814","  156"," 1,736"," 4,040"," 6,442","   251","48.70","51.30","100","33.57","11.58"," 9.18","20.76","3.19","1.08","4.27","11.02","0.05","1.47","16.86","1.28"," 6.58","3.37","2.77","5.11","13.98","19.09"," 3.77","1.02","2.40","0.46"," 5.13","11.94","19.03"," 0.74"
"13","Lightning","High","BUNDIBUGYO"," 52,341"," 55,858","108,199"," 36,165","13,590","11,093","24,683"," 2,701","  984"," 3,685","15,929","  491","1,133","17,172"," 1,884"," 3,831"," 3,198"," 3,219"," 5,852","14,022","19,874"," 4,392"," 2,216"," 2,761","  321","19,747","   632","21,455"," 2,753","48.37","51.63","100","33.42","12.56","10.25","22.81","2.50","0.91","3.41","14.72","0.45","1.05","15.87","1.74"," 3.54","2.96","2.98","5.41","12.96","18.37"," 4.06","2.05","2.55","0.30","18.25"," 0.58","19.83"," 2.54"
"14","Lightning","High","BUSHENYI"," 59,487"," 62,019","121,506"," 34,700","17,985","15,256","33,241"," 3,234","1,935"," 5,169","19,053","  166","1,312","18,175"," 1,805"," 2,500"," 1,701"," 3,371"," 4,261"," 7,907","12,168"," 6,049"," 1,162"," 3,966","  585","19,422","   516","25,209"," 4,166","48.96","51.04","100","28.56","14.80","12.56","27.36","2.66","1.59","4.25","15.68","0.14","1.08","14.96","1.49"," 2.06","1.40","2.77","3.51"," 6.51","10.01"," 4.98","0.96","3.26","0.48","15.98"," 0.42","20.75"," 3.43"
"15","Lightning","Very High","BUSHENYI"," 41,745"," 43,406"," 85,151"," 23,842","13,209","11,764","24,973"," 2,575","1,627"," 4,202","13,317","  122","1,146","12,011"," 1,217"," 1,452"," 1,035"," 2,132"," 3,020"," 5,454"," 8,474"," 4,335","   782"," 2,746","  440","12,884","   327","17,867"," 2,380","49.02","50.98","100","28.00","15.51","13.82","29.33","3.02","1.91","4.93","15.64","0.14","1.35","14.11","1.43"," 1.71","1.22","2.50","3.55"," 6.41"," 9.95"," 5.09","0.92","3.22","0.52","15.13"," 0.38","20.98"," 2.80"
"16","Lightning","High","BUSIA"," 68,481"," 72,445","140,926"," 45,699","15,647","11,232","26,879"," 2,190","  773"," 2,963","14,665","  723","  601","23,248"," 1,467"," 4,077"," 2,518"," 4,290"," 6,037","14,292","20,329"," 6,384"," 1,376"," 4,963","  721"," 6,313","15,493","26,901"," 2,251","48.59","51.41","100","32.43","11.10"," 7.97","19.07","1.55","0.55","2.10","10.41","0.51","0.43","16.50","1.04"," 2.89","1.79","3.04","4.28","10.14","14.43"," 4.53","0.98","3.52","0.51"," 4.48","10.99","19.09"," 1.60"
"17","Lightning","Very High","BUSIA","135,062","144,186","279,248"," 88,135","36,581","29,757","66,338"," 7,753","3,864","11,617","28,214","1,542","3,032","35,180"," 3,744"," 6,250"," 4,263"," 6,157","11,809","25,716","37,525"," 8,625"," 2,293"," 7,625","1,279","15,996","21,427","55,029"," 9,370","48.37","51.63","100","31.56","13.10","10.66","23.76","2.78","1.38","4.16","10.10","0.55","1.09","12.60","1.34"," 2.24","1.53","2.20","4.23"," 9.21","13.44"," 3.09","0.82","2.73","0.46"," 5.73"," 7.67","19.71"," 3.36"
"18","Lightning","High","BUTALEJA"," 63,396"," 66,530","129,926"," 45,629","11,259"," 5,803","17,062"," 1,226","  633"," 1,859","11,159","2,082","1,041","20,778"," 1,205"," 6,926"," 3,730"," 4,234"," 7,334","14,053","21,387"," 4,474"," 1,881"," 4,280","  319","12,662"," 6,260","23,333"," 1,643","48.79","51.21","100","35.12"," 8.67"," 4.47","13.13","0.94","0.49","1.43"," 8.59","1.60","0.80","15.99","0.93"," 5.33","2.87","3.26","5.64","10.82","16.46"," 3.44","1.45","3.29","0.25"," 9.75"," 4.82","17.96"," 1.26"
"19","Lightning","High","BUVUMA"," 23,372"," 18,689"," 42,061"," 11,888"," 8,170"," 5,489","13,659"," 1,133","  419"," 1,552"," 6,937","1,862","  641"," 4,219"," 1,700"," 1,918"," 2,590","   438"," 3,604"," 3,812"," 7,416"," 3,733"," 2,132","   358","  131"," 9,411"," 3,382","13,161"," 1,931","55.57","44.43","100","28.26","19.42","13.05","32.47","2.69","1.00","3.69","16.49","4.43","1.52","10.03","4.04"," 4.56","6.16","1.04","8.57"," 9.06","17.63"," 8.88","5.07","0.85","0.31","22.37"," 8.04","31.29"," 4.59"
"20","Lightning","Very High","BUVUMA","  7,085","  4,341"," 11,426","  2,160"," 2,901"," 2,007"," 4,908","   408","  115","   523"," 2,275","  577","  253","   463","   586","   340"," 1,010","    63","   977","   711"," 1,688"," 1,159","   469","    46","   35"," 3,196","   883"," 4,096","   484","62.01","37.99","100","18.90","25.39","17.57","42.95","3.57","1.01","4.58","19.91","5.05","2.21"," 4.05","5.13"," 2.98","8.84","0.55","8.55"," 6.22","14.77","10.14","4.10","0.40","0.31","27.97"," 7.73","35.85"," 4.24"
"21","Lightning","High","DOKOLO"," 52,662"," 54,947","107,609"," 32,207","11,167"," 4,974","16,141"," 2,195","  610"," 2,805","13,092","  548","2,088","18,439","   821"," 5,087"," 2,990"," 3,325"," 3,235","11,112","14,347"," 5,640"," 1,203"," 3,377","  574"," 5,581","12,652","20,625"," 1,289","48.94","51.06","100","29.93","10.38"," 4.62","15.00","2.04","0.57","2.61","12.17","0.51","1.94","17.14","0.76"," 4.73","2.78","3.09","3.01","10.33","13.33"," 5.24","1.12","3.14","0.53"," 5.19","11.76","19.17"," 1.20"
"22","Lightning","High","GULU"," 15,827"," 16,080"," 31,907"," 10,488"," 2,804"," 1,553"," 4,357","   689","  168","   857"," 2,665","  672","  837"," 5,664"," 1,454"," 1,194","   668","   876"," 1,280"," 4,264"," 5,544"," 2,066"," 1,019","   823","  182","   750"," 5,377"," 6,239","   502","49.60","50.40","100","32.87"," 8.79"," 4.87","13.66","2.16","0.53","2.69"," 8.35","2.11","2.62","17.75","4.56"," 3.74","2.09","2.75","4.01","13.36","17.38"," 6.48","3.19","2.58","0.57"," 2.35","16.85","19.55"," 1.57"
"23","Lightning","High","HOIMA","184,580","177,951","362,531","117,806","53,612","35,043","88,655"," 7,740","3,255","10,995","52,714","2,128","4,018","61,070"," 4,917"," 9,302"," 7,223"," 7,725","21,300","33,149","54,449","25,181","11,594"," 9,198","1,395","44,243","25,531","77,675"," 6,356","50.91","49.09","100","32.50","14.79"," 9.67","24.45","2.13","0.90","3.03","14.54","0.59","1.11","16.85","1.36"," 2.57","1.99","2.13","5.88"," 9.14","15.02"," 6.95","3.20","2.54","0.38","12.20"," 7.04","21.43"," 1.75"
"24","Lightning","High","IGANGA","133,403","145,041","278,444"," 89,182","33,870","27,832","61,702"," 4,390","2,659"," 7,049","34,291","2,654","2,624","38,850"," 3,443"," 7,024"," 6,243"," 7,706","13,736","26,855","40,591"," 5,540"," 1,759"," 8,208","  831","29,368"," 3,954","54,043"," 9,458","47.91","52.09","100","32.03","12.16","10.00","22.16","1.58","0.95","2.53","12.32","0.95","0.94","13.95","1.24"," 2.52","2.24","2.77","4.93"," 9.64","14.58"," 1.99","0.63","2.95","0.30","10.55"," 1.42","19.41"," 3.40"
"25","Lightning","High","KABAROLE"," 18,547"," 17,828"," 36,375"," 11,050"," 5,120"," 3,900"," 9,020","   708","  397"," 1,105"," 6,022","  320","  267"," 5,929","   541","   677","   648"," 1,303"," 2,078"," 3,153"," 5,231"," 1,683"," 1,368"," 1,302","  336"," 6,638","   562"," 8,203","   762","50.99","49.01","100","30.38","14.08","10.72","24.80","1.95","1.09","3.04","16.56","0.88","0.73","16.30","1.49"," 1.86","1.78","3.58","5.71"," 8.67","14.38"," 4.63","3.76","3.58","0.92","18.25"," 1.55","22.55"," 2.09"
"26","Lightning","High","KABERAMAIDO"," 32,908"," 34,093"," 67,001"," 21,010"," 7,056"," 3,087","10,143"," 1,378","  446"," 1,824"," 7,352","  211","  948","11,193","   565"," 3,695"," 2,040"," 2,586"," 2,021"," 5,811"," 7,832"," 4,548"," 1,072"," 2,775","  254"," 1,735"," 9,110","12,257","   453","49.12","50.88","100","31.36","10.53"," 4.61","15.14","2.06","0.67","2.72","10.97","0.31","1.41","16.71","0.84"," 5.51","3.04","3.86","3.02"," 8.67","11.69"," 6.79","1.60","4.14","0.38"," 2.59","13.60","18.29"," 0.68"
"27","Lightning","High","KAGADI"," 59,420"," 61,216","120,636"," 41,624","14,399"," 8,348","22,747"," 1,424","  505"," 1,929","18,106","  236","  948","22,151"," 1,224"," 3,247"," 2,355"," 2,343"," 4,984","10,681","15,665"," 6,394"," 1,546"," 2,381","  526","19,039"," 3,809","25,216","   484","49.26","50.74","100","34.50","11.94"," 6.92","18.86","1.18","0.42","1.60","15.01","0.20","0.79","18.36","1.01"," 2.69","1.95","1.94","4.13"," 8.85","12.99"," 5.30","1.28","1.97","0.44","15.78"," 3.16","20.90"," 0.40"
"28","Lightning","High","KAKUMIRO"," 67,558"," 67,455","135,013"," 46,847","19,159","10,843","30,002"," 1,704","  769"," 2,473","19,673","  281","1,164","25,058"," 1,939"," 3,022"," 2,331"," 2,137"," 7,608","12,616","20,224","10,902"," 3,025"," 2,319","  443","19,395"," 5,648","28,853","   920","50.04","49.96","100","34.70","14.19"," 8.03","22.22","1.26","0.57","1.83","14.57","0.21","0.86","18.56","1.44"," 2.24","1.73","1.58","5.64"," 9.34","14.98"," 8.07","2.24","1.72","0.33","14.37"," 4.18","21.37"," 0.68"
"29","Lightning","High","KALANGALA"," 21,949"," 15,140"," 37,089","  8,115"," 9,367"," 6,485","15,852"," 1,479","  521"," 2,000"," 9,809","  831","  914"," 2,813"," 2,130","   619"," 1,529","   365"," 3,221"," 2,304"," 5,525"," 4,908"," 1,985","   337","  116"," 9,896"," 3,804","14,535"," 1,686","59.18","40.82","100","21.88","25.26","17.48","42.74","3.99","1.40","5.39","26.45","2.24","2.46"," 7.58","5.74"," 1.67","4.12","0.98","8.68"," 6.21","14.90","13.23","5.35","0.91","0.31","26.68","10.26","39.19"," 4.55"
"30","Lightning","Very High","KALANGALA"," 15,930"," 10,867"," 26,797","  5,634"," 7,118"," 4,783","11,901"," 1,060","  361"," 1,421"," 7,036","  647","  720"," 1,820"," 1,535","   444"," 1,112","   264"," 2,353"," 1,587"," 3,940"," 3,708"," 1,660","   253","   92"," 7,453"," 2,491","10,584"," 1,283","59.45","40.55","100","21.02","26.56","17.85","44.41","3.96","1.35","5.30","26.26","2.41","2.69"," 6.79","5.73"," 1.66","4.15","0.99","8.78"," 5.92","14.70","13.84","6.19","0.94","0.34","27.81"," 9.30","39.50"," 4.79"
"31","Lightning","High","KALIRO"," 42,384"," 43,992"," 86,376"," 27,528","10,067"," 6,177","16,244"," 1,735","  875"," 2,610","10,676","  650","1,042","12,851","   873"," 2,344"," 1,654"," 2,445"," 4,175"," 7,715","11,890"," 2,998","   582"," 2,679","  209"," 8,579"," 2,127","15,784","   759","49.07","50.93","100","31.87","11.65"," 7.15","18.81","2.01","1.01","3.02","12.36","0.75","1.21","14.88","1.01"," 2.71","1.91","2.83","4.83"," 8.93","13.77"," 3.47","0.67","3.10","0.24"," 9.93"," 2.46","18.27"," 0.88"
"32","Lightning","High","KANUNGU"," 78,987"," 85,168","164,155"," 48,125","21,422","17,800","39,222"," 3,928","2,267"," 6,195","27,386","  475","1,002","29,548"," 2,772"," 3,235"," 2,486"," 5,173"," 6,522","13,610","20,132"," 7,355"," 2,426"," 5,544","  920","28,787"," 2,031","35,403"," 2,703","48.12","51.88","100","29.32","13.05","10.84","23.89","2.39","1.38","3.77","16.68","0.29","0.61","18.00","1.69"," 1.97","1.51","3.15","3.97"," 8.29","12.26"," 4.48","1.48","3.38","0.56","17.54"," 1.24","21.57"," 1.65"
"33","Lightning","Very High","KANUNGU"," 71,773"," 77,326","149,099"," 44,316","19,150","15,633","34,783"," 3,345","1,889"," 5,234","24,545","  465","  887","27,357"," 2,515"," 2,911"," 2,182"," 4,595"," 6,052","12,570","18,622"," 6,832"," 2,277"," 4,986","  833","26,146"," 1,957","32,028"," 2,357","48.14","51.86","100","29.72","12.84","10.48","23.33","2.24","1.27","3.51","16.46","0.31","0.59","18.35","1.69"," 1.95","1.46","3.08","4.06"," 8.43","12.49"," 4.58","1.53","3.34","0.56","17.54"," 1.31","21.48"," 1.58"
"34","Lightning","High","KAPCHORWA"," 19,182"," 19,779"," 38,961"," 10,857"," 4,276"," 2,695"," 6,971"," 1,037","  518"," 1,555"," 4,755","  164","  238"," 6,489","   454"," 1,201","   825"," 1,397"," 1,896"," 3,928"," 5,824"," 1,135","   214"," 1,475","  111"," 5,995"," 1,454"," 7,935","   800","49.23","50.77","100","27.87","10.98"," 6.92","17.89","2.66","1.33","3.99","12.20","0.42","0.61","16.66","1.17"," 3.08","2.12","3.59","4.87","10.08","14.95"," 2.91","0.55","3.79","0.28","15.39"," 3.73","20.37"," 2.05"
"35","Lightning","High","KIBUKU"," 36,114"," 38,833"," 74,947"," 25,845"," 7,092"," 4,258","11,350","   838","  472"," 1,310"," 7,097","  960","  654","11,377","   619"," 2,239"," 1,354"," 1,731"," 4,118"," 8,344","12,462"," 3,893","   712"," 2,369","  206"," 7,072"," 3,313","13,164"," 1,472","48.19","51.81","100","34.48"," 9.46"," 5.68","15.14","1.12","0.63","1.75"," 9.47","1.28","0.87","15.18","0.83"," 2.99","1.81","2.31","5.49","11.13","16.63"," 5.19","0.95","3.16","0.27"," 9.44"," 4.42","17.56"," 1.96"
"36","Lightning","High","KIRYANDONGO"," 40,621"," 39,736"," 80,357"," 27,115","10,203"," 5,362","15,565"," 1,332","  433"," 1,765"," 8,384","  930","1,245","13,808","   783"," 2,482"," 1,351"," 1,344"," 5,834","10,011","15,845"," 4,816"," 2,401"," 1,742","  263"," 4,741"," 9,267","15,271","   773","50.55","49.45","100","33.74","12.70"," 6.67","19.37","1.66","0.54","2.20","10.43","1.16","1.55","17.18","0.97"," 3.09","1.68","1.67","7.26","12.46","19.72"," 5.99","2.99","2.17","0.33"," 5.90","11.53","19.00"," 0.96"
"37","Lightning","High","KITGUM"," 22,899"," 24,058"," 46,957"," 15,441"," 3,835"," 2,039"," 5,874"," 1,152","  321"," 1,473"," 3,174","1,443","  537"," 8,220"," 2,148"," 1,771"," 1,013"," 1,505"," 1,736"," 5,821"," 7,557"," 3,430"," 1,301"," 1,559","  327"," 1,929"," 6,780"," 8,931"," 1,462","48.77","51.23","100","32.88"," 8.17"," 4.34","12.51","2.45","0.68","3.14"," 6.76","3.07","1.14","17.51","4.57"," 3.77","2.16","3.21","3.70","12.40","16.09"," 7.30","2.77","3.32","0.70"," 4.11","14.44","19.02"," 3.11"
"38","Lightning","High","KOLE","117,164","122,163","239,327"," 74,099","22,815"," 8,628","31,443"," 4,139","1,549"," 5,688","27,608","2,929","4,312","44,513"," 5,110","11,680"," 6,738"," 8,646"," 7,085","23,810","30,895","17,117"," 3,555","10,395","1,571","12,060","32,056","48,217"," 2,479","48.96","51.04","100","30.96"," 9.53"," 3.61","13.14","1.73","0.65","2.38","11.54","1.22","1.80","18.60","2.14"," 4.88","2.82","3.61","2.96"," 9.95","12.91"," 7.15","1.49","4.34","0.66"," 5.04","13.39","20.15"," 1.04"
"39","Lightning","High","KWEEN","  9,360","  9,256"," 18,616","  5,934"," 1,586","   652"," 2,238","   345","  140","   485"," 1,915","  182","   94"," 2,845","    69","   339","   224","   194"," 1,035"," 1,876"," 2,911","   670","   161","   292","   28"," 2,460","   736"," 3,236","   309","50.28","49.72","100","31.88"," 8.52"," 3.50","12.02","1.85","0.75","2.61","10.29","0.98","0.50","15.28","0.37"," 1.82","1.20","1.04","5.56","10.08","15.64"," 3.60","0.86","1.57","0.15","13.21"," 3.95","17.38"," 1.66"
"40","Lightning","High","KYANKWANZI"," 16,186"," 14,960"," 31,146"," 10,819"," 4,767"," 2,514"," 7,281","   553","  169","   722"," 3,933","  260","  264"," 5,309","   594","   841","   911","   572"," 1,963"," 2,850"," 4,813"," 2,355","   761","   675","   98"," 3,315"," 2,439"," 6,663","   151","51.97","48.03","100","34.74","15.31"," 8.07","23.38","1.78","0.54","2.32","12.63","0.83","0.85","17.05","1.91"," 2.70","2.92","1.84","6.30"," 9.15","15.45"," 7.56","2.44","2.17","0.31","10.64"," 7.83","21.39"," 0.48"
"41","Lightning","High","KYENJOJO"," 82,404"," 82,551","164,955"," 54,511","20,541","14,149","34,690"," 2,842","1,380"," 4,222","22,689","1,125","1,407","24,415"," 3,110"," 4,639"," 3,764"," 5,125"," 8,488","15,529","24,017","17,613"," 5,793"," 5,217","1,104","26,819"," 4,175","35,730"," 4,340","49.96","50.04","100","33.05","12.45"," 8.58","21.03","1.72","0.84","2.56","13.75","0.68","0.85","14.80","1.89"," 2.81","2.28","3.11","5.15"," 9.41","14.56","10.68","3.51","3.16","0.67","16.26"," 2.53","21.66"," 2.63"
"42","Lightning","High","KYOTERA"," 15,683"," 15,114"," 30,797","  9,440"," 4,231"," 3,337"," 7,568","   332","  198","   530"," 5,157","  299","  222"," 5,145","   687","   435","   247","   845"," 1,142"," 1,692"," 2,834"," 1,609","   498"," 1,262","  241"," 4,222","   378"," 6,578","   589","50.92","49.08","100","30.65","13.74","10.84","24.57","1.08","0.64","1.72","16.75","0.97","0.72","16.71","2.23"," 1.41","0.80","2.74","3.71"," 5.49"," 9.20"," 5.22","1.62","4.10","0.78","13.71"," 1.23","21.36"," 1.91"
"43","Lightning","High","LAMWO"," 27,290"," 28,280"," 55,570"," 18,174"," 5,189"," 2,883"," 8,072"," 1,795","  462"," 2,257"," 4,148","1,969","  679","10,264"," 1,215"," 3,240"," 1,726"," 2,000"," 1,989"," 6,607"," 8,596"," 5,285"," 2,681"," 1,864","  396"," 1,491"," 9,649","11,423"," 1,112","49.11","50.89","100","32.70"," 9.34"," 5.19","14.53","3.23","0.83","4.06"," 7.46","3.54","1.22","18.47","2.19"," 5.83","3.11","3.60","3.58","11.89","15.47"," 9.51","4.82","3.35","0.71"," 2.68","17.36","20.56"," 2.00"
"44","Lightning","High","LIRA","101,745","110,029","211,774"," 57,092","31,235","23,468","54,703","11,803","6,508","18,311","28,595","2,566","5,978","26,411"," 4,129"," 9,221"," 6,736"," 5,477"," 6,819","18,859","25,678"," 8,252"," 2,221"," 5,000","1,708","14,332","15,442","44,838"," 7,763","48.04","51.96","100","26.96","14.75","11.08","25.83","5.57","3.07","8.65","13.50","1.21","2.82","12.47","1.95"," 4.35","3.18","2.59","3.22"," 8.91","12.13"," 3.90","1.05","2.36","0.81"," 6.77"," 7.29","21.17"," 3.67"
"45","Lightning","High","MANAFWA","  8,682","  8,999"," 17,681","  5,770"," 1,915"," 1,153"," 3,068","   325","  162","   487"," 2,147","  167","  155"," 3,100","   234"," 1,209","   630","   638","   974"," 1,893"," 2,867"," 1,139","   571","   593","   56"," 2,457","   746"," 3,492","   198","49.10","50.90","100","32.63","10.83"," 6.52","17.35","1.84","0.92","2.75","12.14","0.94","0.88","17.53","1.32"," 6.84","3.56","3.61","5.51","10.71","16.22"," 6.44","3.23","3.35","0.32","13.90"," 4.22","19.75"," 1.12"
"46","Lightning","High","MASAKA"," 12,749"," 12,083"," 24,832","  7,468"," 3,491"," 2,775"," 6,266","   249","  140","   389"," 4,509","  430","  138"," 4,060","   795","   470","   384","   721"," 1,259"," 1,552"," 2,811"," 1,570","   718","   772","  194"," 4,073","   430"," 6,162","   263","51.34","48.66","100","30.07","14.06","11.18","25.23","1.00","0.56","1.57","18.16","1.73","0.56","16.35","3.20"," 1.89","1.55","2.90","5.07"," 6.25","11.32"," 6.32","2.89","3.11","0.78","16.40"," 1.73","24.81"," 1.06"
"47","Lightning","High","MASINDI"," 97,139"," 93,106","190,245"," 58,610","27,559","17,652","45,211"," 5,661","2,106"," 7,767","26,844","1,034","2,530","31,008"," 2,104"," 6,690"," 4,766"," 4,477","11,031","18,966","29,997"," 9,726"," 3,509"," 4,808","  726","14,260","17,030","40,349"," 3,542","51.06","48.94","100","30.81","14.49"," 9.28","23.76","2.98","1.11","4.08","14.11","0.54","1.33","16.30","1.11"," 3.52","2.51","2.35","5.80"," 9.97","15.77"," 5.11","1.84","2.53","0.38"," 7.50"," 8.95","21.21"," 1.86"
"48","Lightning","High","MAYUGE","  6,611","  6,606"," 13,217","  4,256"," 2,093"," 1,602"," 3,695","   166","   78","   244"," 2,141","  274","  170"," 1,423","   253","   251","   283","   109"," 1,069"," 1,552"," 2,621","   852","   271","   176","   54"," 2,127"," 1,492"," 3,746","   838","50.02","49.98","100","32.20","15.84","12.12","27.96","1.26","0.59","1.85","16.20","2.07","1.29","10.77","1.91"," 1.90","2.14","0.82","8.09","11.74","19.83"," 6.45","2.05","1.33","0.41","16.09","11.29","28.34"," 6.34"
"49","Lightning","High","MITOOMA"," 54,441"," 60,407","114,848"," 36,057","13,648","13,183","26,831"," 2,107","1,215"," 3,322","17,082","  154","1,120","20,669"," 2,243"," 3,532"," 2,274"," 4,218"," 4,759"," 9,777","14,536"," 6,402"," 3,139"," 4,072","  626","19,887"," 1,805","24,647"," 2,443","47.40","52.60","100","31.40","11.88","11.48","23.36","1.83","1.06","2.89","14.87","0.13","0.98","18.00","1.95"," 3.08","1.98","3.67","4.14"," 8.51","12.66"," 5.57","2.73","3.55","0.55","17.32"," 1.57","21.46"," 2.13"
"50","Lightning","Very High","MITOOMA"," 51,734"," 57,358","109,092"," 34,414","12,737","12,221","24,958"," 1,934","1,123"," 3,057","16,130","  152","1,048","19,794"," 2,165"," 3,359"," 2,137"," 3,992"," 4,556"," 9,357","13,913"," 6,385"," 3,127"," 3,869","  589","18,992"," 1,788","23,301"," 2,335","47.42","52.58","100","31.55","11.68","11.20","22.88","1.77","1.03","2.80","14.79","0.14","0.96","18.14","1.98"," 3.08","1.96","3.66","4.18"," 8.58","12.75"," 5.85","2.87","3.55","0.54","17.41"," 1.64","21.36"," 2.14"
"51","Lightning","High","MOYO"," 24,776"," 25,479"," 50,255"," 14,809"," 6,205"," 4,612","10,817"," 1,017","  337"," 1,354"," 4,893","1,293","  856"," 8,488"," 1,041"," 1,408","   673"," 1,165"," 1,976"," 5,364"," 7,340","   768","   575"," 1,251","  256"," 4,593"," 4,236"," 9,377","   722","49.30","50.70","100","29.47","12.35"," 9.18","21.52","2.02","0.67","2.69"," 9.74","2.57","1.70","16.89","2.07"," 2.80","1.34","2.32","3.93","10.67","14.61"," 1.53","1.14","2.49","0.51"," 9.14"," 8.43","18.66"," 1.44"
"52","Lightning","High","MUKONO"," 10,534","  8,244"," 18,778","  4,767"," 4,520"," 3,491"," 8,011","   554","  234","   788"," 3,583","  926","  689"," 1,645","   926","   411","   714","   162"," 1,261"," 1,183"," 2,444"," 1,167"," 1,559","   170","   64"," 4,165"," 2,472"," 6,763"," 1,370","56.10","43.90","100","25.39","24.07","18.59","42.66","2.95","1.25","4.20","19.08","4.93","3.67"," 8.76","4.93"," 2.19","3.80","0.86","6.72"," 6.30","13.02"," 6.21","8.30","0.91","0.34","22.18","13.16","36.02"," 7.30"
"53","Lightning","Very High","MUKONO"," 10,534","  8,244"," 18,778","  4,767"," 4,520"," 3,491"," 8,011","   554","  234","   788"," 3,583","  926","  689"," 1,645","   926","   411","   714","   162"," 1,261"," 1,183"," 2,444"," 1,167"," 1,559","   170","   64"," 4,165"," 2,472"," 6,763"," 1,370","56.10","43.90","100","25.39","24.07","18.59","42.66","2.95","1.25","4.20","19.08","4.93","3.67"," 8.76","4.93"," 2.19","3.80","0.86","6.72"," 6.30","13.02"," 6.21","8.30","0.91","0.34","22.18","13.16","36.02"," 7.30"
"54","Lightning","High","NAMAYINGO"," 37,645"," 39,469"," 77,114"," 25,518"," 9,371"," 6,788","16,159"," 1,395","  683"," 2,078"," 9,466","  962","  600","11,205"," 1,519"," 1,998"," 1,533"," 1,554"," 4,197"," 8,504","12,701"," 1,659","   635"," 1,701","  246"," 5,955"," 7,926","16,482"," 2,226","48.82","51.18","100","33.09","12.15"," 8.80","20.95","1.81","0.89","2.69","12.28","1.25","0.78","14.53","1.97"," 2.59","1.99","2.02","5.44","11.03","16.47"," 2.15","0.82","2.21","0.32"," 7.72","10.28","21.37"," 2.89"
"55","Lightning","High","NAMISINDWA","  8,394","  8,775"," 17,169","  5,813"," 1,834"," 1,111"," 2,945","   387","  225","   612"," 2,108","  214","  153"," 3,232","   261"," 2,137","   912","   664","   865"," 1,553"," 2,418","   810","   384","   581","   35"," 2,650","   726"," 3,561","   395","48.89","51.11","100","33.86","10.68"," 6.47","17.15","2.25","1.31","3.56","12.28","1.25","0.89","18.82","1.52","12.45","5.31","3.87","5.04"," 9.05","14.08"," 4.72","2.24","3.38","0.20","15.43"," 4.23","20.74"," 2.30"
"56","Lightning","High","NAMUTUMBA","123,911","128,646","252,557"," 87,427","25,783","14,492","40,275"," 2,706","1,467"," 4,173","27,313","1,391","1,370","39,231"," 2,119"," 7,560"," 4,665"," 7,377","14,102","26,447","40,549","10,366"," 4,312"," 7,940","  789","25,216"," 8,811","44,971"," 5,277","49.06","50.94","100","34.62","10.21"," 5.74","15.95","1.07","0.58","1.65","10.81","0.55","0.54","15.53","0.84"," 2.99","1.85","2.92","5.58","10.47","16.06"," 4.10","1.71","3.14","0.31"," 9.98"," 3.49","17.81"," 2.09"
"57","Lightning","High","NGORA"," 28,694"," 31,134"," 59,828"," 19,532"," 5,621"," 2,815"," 8,436"," 1,249","  381"," 1,630"," 6,004","   25","  760"," 8,928"," 1,212"," 1,861"," 1,020"," 2,118"," 2,649"," 6,387"," 9,036"," 3,388","   411"," 2,358","  162","   911"," 7,597"," 9,762"," 7,526","47.96","52.04","100","32.65"," 9.40"," 4.71","14.10","2.09","0.64","2.72","10.04","0.04","1.27","14.92","2.03"," 3.11","1.70","3.54","4.43","10.68","15.10"," 5.66","0.69","3.94","0.27"," 1.52","12.70","16.32","12.58"
"58","Lightning","High","NTOROKO","  8,365","  8,370"," 16,735","  5,420"," 2,459"," 1,939"," 4,398","   529","  217","   746"," 2,001","   37","  227"," 2,180","   129","   374","   293","   373","   934"," 1,702"," 2,636"," 1,182","   433","   379","   71"," 2,259","   767"," 3,533","   345","49.99","50.01","100","32.39","14.69","11.59","26.28","3.16","1.30","4.46","11.96","0.22","1.36","13.03","0.77"," 2.23","1.75","2.23","5.58","10.17","15.75"," 7.06","2.59","2.26","0.42","13.50"," 4.58","21.11"," 2.06"
"59","Lightning","High","NWOYA"," 65,969"," 67,537","133,506"," 44,215","13,863"," 7,440","21,303"," 4,226","1,334"," 5,560","12,745","3,291","2,572","23,885"," 4,987"," 8,914"," 4,910"," 3,860"," 5,040","16,092","21,132","11,828"," 6,367"," 3,650","  985"," 2,970","22,345","26,134","   769","49.41","50.59","100","33.12","10.38"," 5.57","15.96","3.17","1.00","4.16"," 9.55","2.47","1.93","17.89","3.74"," 6.68","3.68","2.89","3.78","12.05","15.83"," 8.86","4.77","2.73","0.74"," 2.22","16.74","19.58"," 0.58"
"60","Lightning","High","OTUKE"," 21,746"," 22,981"," 44,727"," 14,409"," 3,822"," 1,353"," 5,175","   864","  230"," 1,094"," 3,225","2,025","1,026"," 8,799"," 3,504"," 3,254"," 1,737"," 1,640"," 1,208"," 5,507"," 6,715"," 3,976"," 1,445"," 1,401","  305"," 1,212"," 7,889"," 9,539","   229","48.62","51.38","100","32.22"," 8.55"," 3.03","11.57","1.93","0.51","2.45"," 7.21","4.53","2.29","19.67","7.83"," 7.28","3.88","3.67","2.70","12.31","15.01"," 8.89","3.23","3.13","0.68"," 2.71","17.64","21.33"," 0.51"
"61","Lightning","High","OYAM"," 69,476"," 72,258","141,734"," 43,277","15,562"," 7,112","22,674"," 3,832","1,372"," 5,204","15,217","1,990","3,895","25,633"," 2,393"," 6,803"," 3,849"," 4,402"," 4,661","13,989","18,650"," 7,563"," 2,154"," 4,567","  854"," 4,702","20,377","28,146"," 2,607","49.02","50.98","100","30.53","10.98"," 5.02","16.00","2.70","0.97","3.67","10.74","1.40","2.75","18.09","1.69"," 4.80","2.72","3.11","3.29"," 9.87","13.16"," 5.34","1.52","3.22","0.60"," 3.32","14.38","19.86"," 1.84"
"62","Lightning","High","PADER"," 79,328"," 83,520","162,848"," 51,516","15,172"," 8,333","23,505"," 6,117","2,668"," 8,785","12,760","3,977","2,228","26,909"," 6,739"," 9,080"," 5,191"," 4,632"," 6,421","21,120","27,541","10,703"," 4,733"," 5,037","1,561"," 3,928","25,208","31,134"," 3,904","48.71","51.29","100","31.63"," 9.32"," 5.12","14.43","3.76","1.64","5.39"," 7.84","2.44","1.37","16.52","4.14"," 5.58","3.19","2.84","3.94","12.97","16.91"," 6.57","2.91","3.09","0.96"," 2.41","15.48","19.12"," 2.40"
"63","Lightning","High","PAKWACH"," 11,795"," 12,351"," 24,146","  8,046"," 2,310"," 1,234"," 3,544","   407","  167","   574"," 1,714","  255","  358"," 4,229","   472","   902","   538","   772"," 1,155"," 3,175"," 4,330","   683","   403"," 1,006","  117","   491"," 3,952"," 4,560","   310","48.85","51.15","100","33.32"," 9.57"," 5.11","14.68","1.69","0.69","2.38"," 7.10","1.06","1.48","17.51","1.95"," 3.74","2.23","3.20","4.78","13.15","17.93"," 2.83","1.67","4.17","0.48"," 2.03","16.37","18.89"," 1.28"
"64","Lightning","High","RUBIRIZI"," 21,729"," 24,524"," 46,253"," 13,703"," 5,684"," 6,193","11,877"," 1,395","1,053"," 2,448"," 6,862","  308","  511"," 8,312","   740"," 1,015","   735"," 1,471"," 1,534"," 3,853"," 5,387","   601","   242"," 1,669","  332"," 7,852","   132"," 9,999","   181","46.98","53.02","100","29.63","12.29","13.39","25.68","3.02","2.28","5.29","14.84","0.67","1.10","17.97","1.60"," 2.19","1.59","3.18","3.32"," 8.33","11.65"," 1.30","0.52","3.61","0.72","16.98"," 0.29","21.62"," 0.39"
"65","Lightning","Very High","RUBIRIZI"," 12,323"," 14,169"," 26,492","  8,154"," 2,925"," 3,268"," 6,193","   686","  547"," 1,233"," 3,907","  157","  249"," 4,963","   447","   600","   452","   945","   988"," 2,441"," 3,429","   321","    97","   959","  184"," 4,822","    95"," 5,683","   126","46.52","53.48","100","30.78","11.04","12.34","23.38","2.59","2.06","4.65","14.75","0.59","0.94","18.73","1.69"," 2.26","1.71","3.57","3.73"," 9.21","12.94"," 1.21","0.37","3.62","0.69","18.20"," 0.36","21.45"," 0.48"
"66","Lightning","High","RUKUNGIRI"," 62,689"," 67,319","130,008"," 37,739","17,685","16,337","34,022"," 2,681","1,568"," 4,249","21,834","  414","1,017","22,213"," 2,432"," 2,278"," 1,595"," 4,338"," 4,951"," 9,669","14,620"," 3,370"," 2,016"," 4,971","  928","23,885"," 1,817","28,647"," 3,569","48.22","51.78","100","29.03","13.60","12.57","26.17","2.06","1.21","3.27","16.79","0.32","0.78","17.09","1.87"," 1.75","1.23","3.34","3.81"," 7.44","11.25"," 2.59","1.55","3.82","0.71","18.37"," 1.40","22.03"," 2.75"
"67","Lightning","Very High","RUKUNGIRI"," 56,068"," 60,400","116,468"," 34,405","14,863","13,636","28,499"," 1,858","1,080"," 2,938","19,427","  374","  809","20,939"," 2,183"," 2,048"," 1,414"," 4,016"," 4,654"," 9,116","13,770"," 3,281"," 2,002"," 4,542","  794","22,191"," 1,803","25,611"," 3,132","48.14","51.86","100","29.54","12.76","11.71","24.47","1.60","0.93","2.52","16.68","0.32","0.69","17.98","1.87"," 1.76","1.21","3.45","4.00"," 7.83","11.82"," 2.82","1.72","3.90","0.68","19.05"," 1.55","21.99"," 2.69"
"68","Lightning","High","SERERE","113,488","119,621","233,109"," 76,897","24,215","11,122","35,337"," 3,897","1,565"," 5,462","19,828","  906","4,446","34,130"," 4,486"," 8,786"," 4,884"," 7,092","10,100","21,779","31,879","12,263"," 2,382"," 7,680","  653"," 5,375","27,843","38,499"," 4,234","48.68","51.32","100","32.99","10.39"," 4.77","15.16","1.67","0.67","2.34"," 8.51","0.39","1.91","14.64","1.92"," 3.77","2.10","3.04","4.33"," 9.34","13.68"," 5.26","1.02","3.29","0.28"," 2.31","11.94","16.52"," 1.82"
"69","Lightning","High","SIRONKO","  4,325","  4,171","  8,496","  2,514","   933","   454"," 1,387","    72","   38","   110"," 1,221","  140","   91"," 1,932","   223","   372","   263","   366","   744"," 1,030"," 1,774","   217","    32","   354","   33"," 1,916","   167"," 2,129","    82","50.91","49.09","100","29.59","10.98"," 5.34","16.33","0.85","0.45","1.29","14.37","1.65","1.07","22.74","2.62"," 4.38","3.10","4.31","8.76","12.12","20.88"," 2.55","0.38","4.17","0.39","22.55"," 1.97","25.06"," 0.97"
"70","Lightning","High","SOROTI","117,011","122,777","239,788"," 71,530","30,960","20,707","51,667"," 8,310","4,437","12,747","24,229","  980","5,353","28,728"," 3,697"," 8,418"," 5,111"," 6,106"," 7,723","20,569","28,292"," 7,155"," 1,907"," 6,556","  851"," 7,811","22,698","43,331"," 9,105","48.80","51.20","100","29.83","12.91"," 8.64","21.55","3.47","1.85","5.32","10.10","0.41","2.23","11.98","1.54"," 3.51","2.13","2.55","3.22"," 8.58","11.80"," 2.98","0.80","2.73","0.35"," 3.26"," 9.47","18.07"," 3.80"
"71","Lightning","High","TORORO","242,244","256,868","499,112","154,710","53,762","37,228","90,990","11,562","6,377","17,939","47,094","4,564","9,402","80,213"," 5,808","18,669","10,766","14,845","28,958","58,375","87,333","13,803"," 7,346","17,010","2,007","45,564","32,138","95,463","11,881","48.53","51.47","100","31.00","10.77"," 7.46","18.23","2.32","1.28","3.59"," 9.44","0.91","1.88","16.07","1.16"," 3.74","2.16","2.97","5.80","11.70","17.50"," 2.77","1.47","3.41","0.40"," 9.13"," 6.44","19.13"," 2.38"
"72","Lightning","Very High","TORORO","115,525","123,048","238,573"," 70,643","31,018","24,865","55,883"," 8,671","5,232","13,903","24,293","1,868","5,892","32,279"," 3,550"," 8,300"," 5,457"," 6,776","11,838","24,301","36,139"," 6,298"," 3,667"," 7,209","  977","18,544","14,202","46,651"," 8,141","48.42","51.58","100","29.61","13.00","10.42","23.42","3.63","2.19","5.83","10.18","0.78","2.47","13.53","1.49"," 3.48","2.29","2.84","4.96","10.19","15.15"," 2.64","1.54","3.02","0.41"," 7.77"," 5.95","19.55"," 3.41"
