"","District","Rank","Subcounty","Male","Female","Total"
"10","NAKAPIRIPIRIT","25","8","74578","82112","156690"
"11","NAPAK","25","8","65518","76706","142224"
"5","KAABONG","23","14","79207","88672","167879"
"8","KOTIDO","23","8","79510","87702","167212"
"4","HOIMA","17","5","153782","148808","302590"
"7","KITGUM","15","12","99258","104790","204048"
"1","AMURIA","14","16","132521","138407","270928"
"3","BULAMBULI","12","18","81987","84481","166468"
"2","ARUA","11","8","81497","84957","166454"
"12","SIRONKO","11","16","100356","101999","202355"
"6","KATAKWI","10","10","81673","84558","166231"
"9","MBALE","5","8","105963","117944","223907"
"13","Total","Drought","131","1135850","1201136","2336986"
