"","District","Male","Female","Total"
"1","AMURIA","132521","138407","270928"
"2","AMURU","69703","72485","142188"
"3","ARUA","118891","126102","244993"
"4","BUDUDA","16530","16235","32765"
"5","BULAMBULI","82811","85266","168077"
"6","BUNDIBUGYO","18021","19189","37210"
"7","HOIMA","170961","165543","336504"
"8","KAABONG","79207","88672","167879"
"9","KABALE","19269","21178","40447"
"10","KAKUMIRO","27912","27695","55607"
"11","KANUNGU","19627","21208","40835"
"12","KASESE","58449","61291","119740"
"13","KATAKWI","81673","84558","166231"
"14","KIRUHURA","27601","27320","54921"
"15","KISORO","23009","28422","51431"
"16","KITGUM","99258","104790","204048"
"17","KOTIDO","79510","87702","167212"
"18","MBALE","129200","142882","272082"
"19","MUBENDE","13720","13569","27289"
"20","NAKAPIRIPIRIT","74578","82112","156690"
"21","NAMUTUMBA","24782","25729","50511"
"22","NAPAK","65518","76706","142224"
"23","RUKUNGIRI","25053","27461","52514"
"24","SIRONKO","104457","105911","210368"
"25","TORORO","48005","50822","98827"
"26","Total","1610266","1701255","3311521"
