"","District","Male","Female","Total"
"1","AMURIA",99390,103804,203194
"2","AMURU",68463,71558,140022
"3","ARUA",307636,334651,642289
"4","BUDUDA",85157,84059,169216
"5","BULAMBULI",64582,66304,130885
"6","BUNDIBUGYO",85907,91966,177871
"7","HOIMA",227988,226961,454947
"8","KAABONG",59407,66502,125911
"9","KABALE",85957,94093,180050
"10","KAKUMIRO",112267,111331,223600
"11","KANUNGU",96547,104553,201099
"12","KASESE",265153,280157,545312
"13","KATAKWI",61255,63419,124673
"14","KIRUHURA",131713,127713,259426
"15","KISORO",97293,120123,217418
"16","KITGUM",74444,78592,153036
"17","KOTIDO",66293,72954,139246
"18","MBALE",177802,194962,372765
"19","MUBENDE",329504,320732,650237
"20","NAKAPIRIPIRIT",55933,61584,117517
"21","NAMUTUMBA",92932,96485,189418
"22","NAPAK",49140,57529,106668
"23","RUKUNGIRI",118700,130351,249051
"24","SIRONKO",90647,91168,181816
"25","TORORO",190825,202722,393545
"26","Total",3094935,3254273,6349212
