"District","DroughtAllCriteria","FloodAllCriteria","LandslideAllCriteria","LightningAllCriteria","Rank"
"HOIMA",17,24,NA,17,50
"NAKAPIRIPIRIT",25,14,10,NA,49
"KASESE",2,17,25,NA,48
"MBALE",5,6,21,12,48
"NAPAK",25,5,10,NA,46
"ARUA",11,25,1,1,45
"BULAMBULI",12,NA,20,NA,44
"TORORO",3,7,2,20,44
"KIRUHURA",1,19,NA,8,42
"KAABONG",23,2,1,NA,41
"SIRONKO",11,NA,15,NA,41
"KOTIDO",23,NA,NA,NA,39
"RUKUNGIRI",NA,2,2,19,39
"KAKUMIRO",NA,4,NA,18,37
"KATAKWI",10,12,NA,NA,37
"AMURU",NA,20,NA,NA,35
"KISORO",NA,NA,20,NA,35
"KABALE",NA,NA,18,NA,33
"KANUNGU",NA,NA,9,9,33
"AMURIA",14,3,NA,NA,31
"BUDUDA",NA,NA,17,NA,31
"MUBENDE",NA,NA,NA,16,29
"BUNDIBUGYO",NA,NA,15,NA,28
"KITGUM",15,NA,NA,NA,28
"NAMUTUMBA",NA,NA,NA,15,28
"BUSIA",NA,NA,NA,14,25
"ISINGIRO",NA,1,NA,13,25
"KAYUNGA",NA,14,NA,NA,25
"RUBANDA",NA,NA,14,NA,25
"KABAROLE",NA,NA,13,NA,21
"KAMULI",NA,13,NA,NA,21
"MOROTO",11,NA,2,NA,21
"KAPCHORWA",2,NA,10,NA,18
"BUTALEJA",NA,4,NA,7,17
"KUMI",11,NA,NA,NA,17
"KWEEN",3,NA,8,NA,17
"NTUNGAMO",NA,NA,NA,11,17
"APAC",NA,10,NA,NA,13
"BUNYANGABU",NA,NA,10,NA,13
"KAMWENGE",NA,10,NA,NA,13
"MBARARA",NA,NA,NA,10,13
"OYAM",NA,9,NA,NA,9
"AGAGO",8,NA,NA,NA,8
"AMUDAT",7,NA,1,NA,8
"BUKWO",NA,NA,7,NA,6
"BUSHENYI",NA,NA,NA,6,5
"RUBIRIZI",NA,NA,6,NA,5
"YUMBE",3,3,NA,NA,5
"ADJUMANI",5,NA,NA,NA,2
"IGANGA",NA,5,NA,NA,2
